The system is: Linux - 4.15.0-23-generic - x86_64
Compiling the CXX compiler identification source file "CMakeCXXCompilerId.cpp" succeeded.
Compiler: /usr/bin/c++ 
Build flags: 
Id flags:  

The output was:
0


Compilation of the CXX compiler identification source "CMakeCXXCompilerId.cpp" produced "a.out"

The CXX compiler identification is GNU, found in "/home/dev/node-td/td/build/CMakeFiles/3.10.2/CompilerIdCXX/a.out"

Compiling the C compiler identification source file "CMakeCCompilerId.c" succeeded.
Compiler: /usr/bin/cc 
Build flags: 
Id flags:  

The output was:
0


Compilation of the C compiler identification source "CMakeCCompilerId.c" produced "a.out"

The C compiler identification is GNU, found in "/home/dev/node-td/td/build/CMakeFiles/3.10.2/CompilerIdC/a.out"

Determining if the CXX compiler works passed with the following output:
Change Dir: /home/dev/node-td/td/build/CMakeFiles/CMakeTmp

Run Build Command:"/usr/bin/make" "cmTC_00b64/fast"
/usr/bin/make -f CMakeFiles/cmTC_00b64.dir/build.make CMakeFiles/cmTC_00b64.dir/build
make[1]: Entering directory '/home/dev/node-td/td/build/CMakeFiles/CMakeTmp'
Building CXX object CMakeFiles/cmTC_00b64.dir/testCXXCompiler.cxx.o
/usr/bin/c++     -o CMakeFiles/cmTC_00b64.dir/testCXXCompiler.cxx.o -c /home/dev/node-td/td/build/CMakeFiles/CMakeTmp/testCXXCompiler.cxx
Linking CXX executable cmTC_00b64
/usr/bin/cmake -E cmake_link_script CMakeFiles/cmTC_00b64.dir/link.txt --verbose=1
/usr/bin/c++       -rdynamic CMakeFiles/cmTC_00b64.dir/testCXXCompiler.cxx.o  -o cmTC_00b64 
make[1]: Leaving directory '/home/dev/node-td/td/build/CMakeFiles/CMakeTmp'


Detecting CXX compiler ABI info compiled with the following output:
Change Dir: /home/dev/node-td/td/build/CMakeFiles/CMakeTmp

Run Build Command:"/usr/bin/make" "cmTC_5f75b/fast"
/usr/bin/make -f CMakeFiles/cmTC_5f75b.dir/build.make CMakeFiles/cmTC_5f75b.dir/build
make[1]: Entering directory '/home/dev/node-td/td/build/CMakeFiles/CMakeTmp'
Building CXX object CMakeFiles/cmTC_5f75b.dir/CMakeCXXCompilerABI.cpp.o
/usr/bin/c++     -o CMakeFiles/cmTC_5f75b.dir/CMakeCXXCompilerABI.cpp.o -c /usr/share/cmake-3.10/Modules/CMakeCXXCompilerABI.cpp
Linking CXX executable cmTC_5f75b
/usr/bin/cmake -E cmake_link_script CMakeFiles/cmTC_5f75b.dir/link.txt --verbose=1
/usr/bin/c++      -v -rdynamic CMakeFiles/cmTC_5f75b.dir/CMakeCXXCompilerABI.cpp.o  -o cmTC_5f75b 
Using built-in specs.
COLLECT_GCC=/usr/bin/c++
COLLECT_LTO_WRAPPER=/usr/lib/gcc/x86_64-linux-gnu/7/lto-wrapper
OFFLOAD_TARGET_NAMES=nvptx-none
OFFLOAD_TARGET_DEFAULT=1
Target: x86_64-linux-gnu
Configured with: ../src/configure -v --with-pkgversion='Ubuntu 7.3.0-16ubuntu3' --with-bugurl=file:///usr/share/doc/gcc-7/README.Bugs --enable-languages=c,ada,c++,go,brig,d,fortran,objc,obj-c++ --prefix=/usr --with-gcc-major-version-only --with-as=/usr/bin/x86_64-linux-gnu-as --with-ld=/usr/bin/x86_64-linux-gnu-ld --program-suffix=-7 --program-prefix=x86_64-linux-gnu- --enable-shared --enable-linker-build-id --libexecdir=/usr/lib --without-included-gettext --enable-threads=posix --libdir=/usr/lib --enable-nls --with-sysroot=/ --enable-clocale=gnu --enable-libstdcxx-debug --enable-libstdcxx-time=yes --with-default-libstdcxx-abi=new --enable-gnu-unique-object --disable-vtable-verify --enable-libmpx --enable-plugin --enable-default-pie --with-system-zlib --with-target-system-zlib --enable-objc-gc=auto --enable-multiarch --disable-werror --with-arch-32=i686 --with-abi=m64 --with-multilib-list=m32,m64,mx32 --enable-multilib --with-tune=generic --enable-offload-targets=nvptx-none --without-cuda-driver --enable-checking=release --build=x86_64-linux-gnu --host=x86_64-linux-gnu --target=x86_64-linux-gnu
Thread model: posix
gcc version 7.3.0 (Ubuntu 7.3.0-16ubuntu3) 
COMPILER_PATH=/usr/lib/gcc/x86_64-linux-gnu/7/:/usr/lib/gcc/x86_64-linux-gnu/7/:/usr/lib/gcc/x86_64-linux-gnu/:/usr/lib/gcc/x86_64-linux-gnu/7/:/usr/lib/gcc/x86_64-linux-gnu/
LIBRARY_PATH=/usr/lib/gcc/x86_64-linux-gnu/7/:/usr/lib/gcc/x86_64-linux-gnu/7/../../../x86_64-linux-gnu/:/usr/lib/gcc/x86_64-linux-gnu/7/../../../../lib/:/lib/x86_64-linux-gnu/:/lib/../lib/:/usr/lib/x86_64-linux-gnu/:/usr/lib/../lib/:/usr/lib/gcc/x86_64-linux-gnu/7/../../../:/lib/:/usr/lib/
COLLECT_GCC_OPTIONS='-v' '-rdynamic' '-o' 'cmTC_5f75b' '-shared-libgcc' '-mtune=generic' '-march=x86-64'
 /usr/lib/gcc/x86_64-linux-gnu/7/collect2 -plugin /usr/lib/gcc/x86_64-linux-gnu/7/liblto_plugin.so -plugin-opt=/usr/lib/gcc/x86_64-linux-gnu/7/lto-wrapper -plugin-opt=-fresolution=/tmp/ccQIV5Mp.res -plugin-opt=-pass-through=-lgcc_s -plugin-opt=-pass-through=-lgcc -plugin-opt=-pass-through=-lc -plugin-opt=-pass-through=-lgcc_s -plugin-opt=-pass-through=-lgcc --sysroot=/ --build-id --eh-frame-hdr -m elf_x86_64 --hash-style=gnu --as-needed -export-dynamic -dynamic-linker /lib64/ld-linux-x86-64.so.2 -pie -z now -z relro -o cmTC_5f75b /usr/lib/gcc/x86_64-linux-gnu/7/../../../x86_64-linux-gnu/Scrt1.o /usr/lib/gcc/x86_64-linux-gnu/7/../../../x86_64-linux-gnu/crti.o /usr/lib/gcc/x86_64-linux-gnu/7/crtbeginS.o -L/usr/lib/gcc/x86_64-linux-gnu/7 -L/usr/lib/gcc/x86_64-linux-gnu/7/../../../x86_64-linux-gnu -L/usr/lib/gcc/x86_64-linux-gnu/7/../../../../lib -L/lib/x86_64-linux-gnu -L/lib/../lib -L/usr/lib/x86_64-linux-gnu -L/usr/lib/../lib -L/usr/lib/gcc/x86_64-linux-gnu/7/../../.. CMakeFiles/cmTC_5f75b.dir/CMakeCXXCompilerABI.cpp.o -lstdc++ -lm -lgcc_s -lgcc -lc -lgcc_s -lgcc /usr/lib/gcc/x86_64-linux-gnu/7/crtendS.o /usr/lib/gcc/x86_64-linux-gnu/7/../../../x86_64-linux-gnu/crtn.o
COLLECT_GCC_OPTIONS='-v' '-rdynamic' '-o' 'cmTC_5f75b' '-shared-libgcc' '-mtune=generic' '-march=x86-64'
make[1]: Leaving directory '/home/dev/node-td/td/build/CMakeFiles/CMakeTmp'


Parsed CXX implicit link information from above output:
  link line regex: [^( *|.*[/\])(ld|CMAKE_LINK_STARTFILE-NOTFOUND|([^/\]+-)?ld|collect2)[^/\]*( |$)]
  ignore line: [Change Dir: /home/dev/node-td/td/build/CMakeFiles/CMakeTmp]
  ignore line: []
  ignore line: [Run Build Command:"/usr/bin/make" "cmTC_5f75b/fast"]
  ignore line: [/usr/bin/make -f CMakeFiles/cmTC_5f75b.dir/build.make CMakeFiles/cmTC_5f75b.dir/build]
  ignore line: [make[1]: Entering directory '/home/dev/node-td/td/build/CMakeFiles/CMakeTmp']
  ignore line: [Building CXX object CMakeFiles/cmTC_5f75b.dir/CMakeCXXCompilerABI.cpp.o]
  ignore line: [/usr/bin/c++     -o CMakeFiles/cmTC_5f75b.dir/CMakeCXXCompilerABI.cpp.o -c /usr/share/cmake-3.10/Modules/CMakeCXXCompilerABI.cpp]
  ignore line: [Linking CXX executable cmTC_5f75b]
  ignore line: [/usr/bin/cmake -E cmake_link_script CMakeFiles/cmTC_5f75b.dir/link.txt --verbose=1]
  ignore line: [/usr/bin/c++      -v -rdynamic CMakeFiles/cmTC_5f75b.dir/CMakeCXXCompilerABI.cpp.o  -o cmTC_5f75b ]
  ignore line: [Using built-in specs.]
  ignore line: [COLLECT_GCC=/usr/bin/c++]
  ignore line: [COLLECT_LTO_WRAPPER=/usr/lib/gcc/x86_64-linux-gnu/7/lto-wrapper]
  ignore line: [OFFLOAD_TARGET_NAMES=nvptx-none]
  ignore line: [OFFLOAD_TARGET_DEFAULT=1]
  ignore line: [Target: x86_64-linux-gnu]
  ignore line: [Configured with: ../src/configure -v --with-pkgversion='Ubuntu 7.3.0-16ubuntu3' --with-bugurl=file:///usr/share/doc/gcc-7/README.Bugs --enable-languages=c,ada,c++,go,brig,d,fortran,objc,obj-c++ --prefix=/usr --with-gcc-major-version-only --with-as=/usr/bin/x86_64-linux-gnu-as --with-ld=/usr/bin/x86_64-linux-gnu-ld --program-suffix=-7 --program-prefix=x86_64-linux-gnu- --enable-shared --enable-linker-build-id --libexecdir=/usr/lib --without-included-gettext --enable-threads=posix --libdir=/usr/lib --enable-nls --with-sysroot=/ --enable-clocale=gnu --enable-libstdcxx-debug --enable-libstdcxx-time=yes --with-default-libstdcxx-abi=new --enable-gnu-unique-object --disable-vtable-verify --enable-libmpx --enable-plugin --enable-default-pie --with-system-zlib --with-target-system-zlib --enable-objc-gc=auto --enable-multiarch --disable-werror --with-arch-32=i686 --with-abi=m64 --with-multilib-list=m32,m64,mx32 --enable-multilib --with-tune=generic --enable-offload-targets=nvptx-none --without-cuda-driver --enable-checking=release --build=x86_64-linux-gnu --host=x86_64-linux-gnu --target=x86_64-linux-gnu]
  ignore line: [Thread model: posix]
  ignore line: [gcc version 7.3.0 (Ubuntu 7.3.0-16ubuntu3) ]
  ignore line: [COMPILER_PATH=/usr/lib/gcc/x86_64-linux-gnu/7/:/usr/lib/gcc/x86_64-linux-gnu/7/:/usr/lib/gcc/x86_64-linux-gnu/:/usr/lib/gcc/x86_64-linux-gnu/7/:/usr/lib/gcc/x86_64-linux-gnu/]
  ignore line: [LIBRARY_PATH=/usr/lib/gcc/x86_64-linux-gnu/7/:/usr/lib/gcc/x86_64-linux-gnu/7/../../../x86_64-linux-gnu/:/usr/lib/gcc/x86_64-linux-gnu/7/../../../../lib/:/lib/x86_64-linux-gnu/:/lib/../lib/:/usr/lib/x86_64-linux-gnu/:/usr/lib/../lib/:/usr/lib/gcc/x86_64-linux-gnu/7/../../../:/lib/:/usr/lib/]
  ignore line: [COLLECT_GCC_OPTIONS='-v' '-rdynamic' '-o' 'cmTC_5f75b' '-shared-libgcc' '-mtune=generic' '-march=x86-64']
  link line: [ /usr/lib/gcc/x86_64-linux-gnu/7/collect2 -plugin /usr/lib/gcc/x86_64-linux-gnu/7/liblto_plugin.so -plugin-opt=/usr/lib/gcc/x86_64-linux-gnu/7/lto-wrapper -plugin-opt=-fresolution=/tmp/ccQIV5Mp.res -plugin-opt=-pass-through=-lgcc_s -plugin-opt=-pass-through=-lgcc -plugin-opt=-pass-through=-lc -plugin-opt=-pass-through=-lgcc_s -plugin-opt=-pass-through=-lgcc --sysroot=/ --build-id --eh-frame-hdr -m elf_x86_64 --hash-style=gnu --as-needed -export-dynamic -dynamic-linker /lib64/ld-linux-x86-64.so.2 -pie -z now -z relro -o cmTC_5f75b /usr/lib/gcc/x86_64-linux-gnu/7/../../../x86_64-linux-gnu/Scrt1.o /usr/lib/gcc/x86_64-linux-gnu/7/../../../x86_64-linux-gnu/crti.o /usr/lib/gcc/x86_64-linux-gnu/7/crtbeginS.o -L/usr/lib/gcc/x86_64-linux-gnu/7 -L/usr/lib/gcc/x86_64-linux-gnu/7/../../../x86_64-linux-gnu -L/usr/lib/gcc/x86_64-linux-gnu/7/../../../../lib -L/lib/x86_64-linux-gnu -L/lib/../lib -L/usr/lib/x86_64-linux-gnu -L/usr/lib/../lib -L/usr/lib/gcc/x86_64-linux-gnu/7/../../.. CMakeFiles/cmTC_5f75b.dir/CMakeCXXCompilerABI.cpp.o -lstdc++ -lm -lgcc_s -lgcc -lc -lgcc_s -lgcc /usr/lib/gcc/x86_64-linux-gnu/7/crtendS.o /usr/lib/gcc/x86_64-linux-gnu/7/../../../x86_64-linux-gnu/crtn.o]
    arg [/usr/lib/gcc/x86_64-linux-gnu/7/collect2] ==> ignore
    arg [-plugin] ==> ignore
    arg [/usr/lib/gcc/x86_64-linux-gnu/7/liblto_plugin.so] ==> ignore
    arg [-plugin-opt=/usr/lib/gcc/x86_64-linux-gnu/7/lto-wrapper] ==> ignore
    arg [-plugin-opt=-fresolution=/tmp/ccQIV5Mp.res] ==> ignore
    arg [-plugin-opt=-pass-through=-lgcc_s] ==> ignore
    arg [-plugin-opt=-pass-through=-lgcc] ==> ignore
    arg [-plugin-opt=-pass-through=-lc] ==> ignore
    arg [-plugin-opt=-pass-through=-lgcc_s] ==> ignore
    arg [-plugin-opt=-pass-through=-lgcc] ==> ignore
    arg [--sysroot=/] ==> ignore
    arg [--build-id] ==> ignore
    arg [--eh-frame-hdr] ==> ignore
    arg [-m] ==> ignore
    arg [elf_x86_64] ==> ignore
    arg [--hash-style=gnu] ==> ignore
    arg [--as-needed] ==> ignore
    arg [-export-dynamic] ==> ignore
    arg [-dynamic-linker] ==> ignore
    arg [/lib64/ld-linux-x86-64.so.2] ==> ignore
    arg [-pie] ==> ignore
    arg [-znow] ==> ignore
    arg [-zrelro] ==> ignore
    arg [-o] ==> ignore
    arg [cmTC_5f75b] ==> ignore
    arg [/usr/lib/gcc/x86_64-linux-gnu/7/../../../x86_64-linux-gnu/Scrt1.o] ==> ignore
    arg [/usr/lib/gcc/x86_64-linux-gnu/7/../../../x86_64-linux-gnu/crti.o] ==> ignore
    arg [/usr/lib/gcc/x86_64-linux-gnu/7/crtbeginS.o] ==> ignore
    arg [-L/usr/lib/gcc/x86_64-linux-gnu/7] ==> dir [/usr/lib/gcc/x86_64-linux-gnu/7]
    arg [-L/usr/lib/gcc/x86_64-linux-gnu/7/../../../x86_64-linux-gnu] ==> dir [/usr/lib/gcc/x86_64-linux-gnu/7/../../../x86_64-linux-gnu]
    arg [-L/usr/lib/gcc/x86_64-linux-gnu/7/../../../../lib] ==> dir [/usr/lib/gcc/x86_64-linux-gnu/7/../../../../lib]
    arg [-L/lib/x86_64-linux-gnu] ==> dir [/lib/x86_64-linux-gnu]
    arg [-L/lib/../lib] ==> dir [/lib/../lib]
    arg [-L/usr/lib/x86_64-linux-gnu] ==> dir [/usr/lib/x86_64-linux-gnu]
    arg [-L/usr/lib/../lib] ==> dir [/usr/lib/../lib]
    arg [-L/usr/lib/gcc/x86_64-linux-gnu/7/../../..] ==> dir [/usr/lib/gcc/x86_64-linux-gnu/7/../../..]
    arg [CMakeFiles/cmTC_5f75b.dir/CMakeCXXCompilerABI.cpp.o] ==> ignore
    arg [-lstdc++] ==> lib [stdc++]
    arg [-lm] ==> lib [m]
    arg [-lgcc_s] ==> lib [gcc_s]
    arg [-lgcc] ==> lib [gcc]
    arg [-lc] ==> lib [c]
    arg [-lgcc_s] ==> lib [gcc_s]
    arg [-lgcc] ==> lib [gcc]
    arg [/usr/lib/gcc/x86_64-linux-gnu/7/crtendS.o] ==> ignore
    arg [/usr/lib/gcc/x86_64-linux-gnu/7/../../../x86_64-linux-gnu/crtn.o] ==> ignore
  collapse library dir [/usr/lib/gcc/x86_64-linux-gnu/7] ==> [/usr/lib/gcc/x86_64-linux-gnu/7]
  collapse library dir [/usr/lib/gcc/x86_64-linux-gnu/7/../../../x86_64-linux-gnu] ==> [/usr/lib/x86_64-linux-gnu]
  collapse library dir [/usr/lib/gcc/x86_64-linux-gnu/7/../../../../lib] ==> [/usr/lib]
  collapse library dir [/lib/x86_64-linux-gnu] ==> [/lib/x86_64-linux-gnu]
  collapse library dir [/lib/../lib] ==> [/lib]
  collapse library dir [/usr/lib/x86_64-linux-gnu] ==> [/usr/lib/x86_64-linux-gnu]
  collapse library dir [/usr/lib/../lib] ==> [/usr/lib]
  collapse library dir [/usr/lib/gcc/x86_64-linux-gnu/7/../../..] ==> [/usr/lib]
  implicit libs: [stdc++;m;gcc_s;gcc;c;gcc_s;gcc]
  implicit dirs: [/usr/lib/gcc/x86_64-linux-gnu/7;/usr/lib/x86_64-linux-gnu;/usr/lib;/lib/x86_64-linux-gnu;/lib]
  implicit fwks: []




Detecting CXX [-std=c++1z] compiler features compiled with the following output:
Change Dir: /home/dev/node-td/td/build/CMakeFiles/CMakeTmp

Run Build Command:"/usr/bin/make" "cmTC_08e92/fast"
/usr/bin/make -f CMakeFiles/cmTC_08e92.dir/build.make CMakeFiles/cmTC_08e92.dir/build
make[1]: Entering directory '/home/dev/node-td/td/build/CMakeFiles/CMakeTmp'
Building CXX object CMakeFiles/cmTC_08e92.dir/feature_tests.cxx.o
/usr/bin/c++    -std=c++1z -o CMakeFiles/cmTC_08e92.dir/feature_tests.cxx.o -c /home/dev/node-td/td/build/CMakeFiles/feature_tests.cxx
Linking CXX executable cmTC_08e92
/usr/bin/cmake -E cmake_link_script CMakeFiles/cmTC_08e92.dir/link.txt --verbose=1
/usr/bin/c++       -rdynamic CMakeFiles/cmTC_08e92.dir/feature_tests.cxx.o  -o cmTC_08e92 
make[1]: Leaving directory '/home/dev/node-td/td/build/CMakeFiles/CMakeTmp'


    Feature record: CXX_FEATURE:1cxx_aggregate_default_initializers
    Feature record: CXX_FEATURE:1cxx_alias_templates
    Feature record: CXX_FEATURE:1cxx_alignas
    Feature record: CXX_FEATURE:1cxx_alignof
    Feature record: CXX_FEATURE:1cxx_attributes
    Feature record: CXX_FEATURE:1cxx_attribute_deprecated
    Feature record: CXX_FEATURE:1cxx_auto_type
    Feature record: CXX_FEATURE:1cxx_binary_literals
    Feature record: CXX_FEATURE:1cxx_constexpr
    Feature record: CXX_FEATURE:1cxx_contextual_conversions
    Feature record: CXX_FEATURE:1cxx_decltype
    Feature record: CXX_FEATURE:1cxx_decltype_auto
    Feature record: CXX_FEATURE:1cxx_decltype_incomplete_return_types
    Feature record: CXX_FEATURE:1cxx_default_function_template_args
    Feature record: CXX_FEATURE:1cxx_defaulted_functions
    Feature record: CXX_FEATURE:1cxx_defaulted_move_initializers
    Feature record: CXX_FEATURE:1cxx_delegating_constructors
    Feature record: CXX_FEATURE:1cxx_deleted_functions
    Feature record: CXX_FEATURE:1cxx_digit_separators
    Feature record: CXX_FEATURE:1cxx_enum_forward_declarations
    Feature record: CXX_FEATURE:1cxx_explicit_conversions
    Feature record: CXX_FEATURE:1cxx_extended_friend_declarations
    Feature record: CXX_FEATURE:1cxx_extern_templates
    Feature record: CXX_FEATURE:1cxx_final
    Feature record: CXX_FEATURE:1cxx_func_identifier
    Feature record: CXX_FEATURE:1cxx_generalized_initializers
    Feature record: CXX_FEATURE:1cxx_generic_lambdas
    Feature record: CXX_FEATURE:1cxx_inheriting_constructors
    Feature record: CXX_FEATURE:1cxx_inline_namespaces
    Feature record: CXX_FEATURE:1cxx_lambdas
    Feature record: CXX_FEATURE:1cxx_lambda_init_captures
    Feature record: CXX_FEATURE:1cxx_local_type_template_args
    Feature record: CXX_FEATURE:1cxx_long_long_type
    Feature record: CXX_FEATURE:1cxx_noexcept
    Feature record: CXX_FEATURE:1cxx_nonstatic_member_init
    Feature record: CXX_FEATURE:1cxx_nullptr
    Feature record: CXX_FEATURE:1cxx_override
    Feature record: CXX_FEATURE:1cxx_range_for
    Feature record: CXX_FEATURE:1cxx_raw_string_literals
    Feature record: CXX_FEATURE:1cxx_reference_qualified_functions
    Feature record: CXX_FEATURE:1cxx_relaxed_constexpr
    Feature record: CXX_FEATURE:1cxx_return_type_deduction
    Feature record: CXX_FEATURE:1cxx_right_angle_brackets
    Feature record: CXX_FEATURE:1cxx_rvalue_references
    Feature record: CXX_FEATURE:1cxx_sizeof_member
    Feature record: CXX_FEATURE:1cxx_static_assert
    Feature record: CXX_FEATURE:1cxx_strong_enums
    Feature record: CXX_FEATURE:1cxx_template_template_parameters
    Feature record: CXX_FEATURE:1cxx_thread_local
    Feature record: CXX_FEATURE:1cxx_trailing_return_types
    Feature record: CXX_FEATURE:1cxx_unicode_literals
    Feature record: CXX_FEATURE:1cxx_uniform_initialization
    Feature record: CXX_FEATURE:1cxx_unrestricted_unions
    Feature record: CXX_FEATURE:1cxx_user_literals
    Feature record: CXX_FEATURE:1cxx_variable_templates
    Feature record: CXX_FEATURE:1cxx_variadic_macros
    Feature record: CXX_FEATURE:1cxx_variadic_templates


Detecting CXX [-std=c++14] compiler features compiled with the following output:
Change Dir: /home/dev/node-td/td/build/CMakeFiles/CMakeTmp

Run Build Command:"/usr/bin/make" "cmTC_960fc/fast"
/usr/bin/make -f CMakeFiles/cmTC_960fc.dir/build.make CMakeFiles/cmTC_960fc.dir/build
make[1]: Entering directory '/home/dev/node-td/td/build/CMakeFiles/CMakeTmp'
Building CXX object CMakeFiles/cmTC_960fc.dir/feature_tests.cxx.o
/usr/bin/c++    -std=c++14 -o CMakeFiles/cmTC_960fc.dir/feature_tests.cxx.o -c /home/dev/node-td/td/build/CMakeFiles/feature_tests.cxx
Linking CXX executable cmTC_960fc
/usr/bin/cmake -E cmake_link_script CMakeFiles/cmTC_960fc.dir/link.txt --verbose=1
/usr/bin/c++       -rdynamic CMakeFiles/cmTC_960fc.dir/feature_tests.cxx.o  -o cmTC_960fc 
make[1]: Leaving directory '/home/dev/node-td/td/build/CMakeFiles/CMakeTmp'


    Feature record: CXX_FEATURE:1cxx_aggregate_default_initializers
    Feature record: CXX_FEATURE:1cxx_alias_templates
    Feature record: CXX_FEATURE:1cxx_alignas
    Feature record: CXX_FEATURE:1cxx_alignof
    Feature record: CXX_FEATURE:1cxx_attributes
    Feature record: CXX_FEATURE:1cxx_attribute_deprecated
    Feature record: CXX_FEATURE:1cxx_auto_type
    Feature record: CXX_FEATURE:1cxx_binary_literals
    Feature record: CXX_FEATURE:1cxx_constexpr
    Feature record: CXX_FEATURE:1cxx_contextual_conversions
    Feature record: CXX_FEATURE:1cxx_decltype
    Feature record: CXX_FEATURE:1cxx_decltype_auto
    Feature record: CXX_FEATURE:1cxx_decltype_incomplete_return_types
    Feature record: CXX_FEATURE:1cxx_default_function_template_args
    Feature record: CXX_FEATURE:1cxx_defaulted_functions
    Feature record: CXX_FEATURE:1cxx_defaulted_move_initializers
    Feature record: CXX_FEATURE:1cxx_delegating_constructors
    Feature record: CXX_FEATURE:1cxx_deleted_functions
    Feature record: CXX_FEATURE:1cxx_digit_separators
    Feature record: CXX_FEATURE:1cxx_enum_forward_declarations
    Feature record: CXX_FEATURE:1cxx_explicit_conversions
    Feature record: CXX_FEATURE:1cxx_extended_friend_declarations
    Feature record: CXX_FEATURE:1cxx_extern_templates
    Feature record: CXX_FEATURE:1cxx_final
    Feature record: CXX_FEATURE:1cxx_func_identifier
    Feature record: CXX_FEATURE:1cxx_generalized_initializers
    Feature record: CXX_FEATURE:1cxx_generic_lambdas
    Feature record: CXX_FEATURE:1cxx_inheriting_constructors
    Feature record: CXX_FEATURE:1cxx_inline_namespaces
    Feature record: CXX_FEATURE:1cxx_lambdas
    Feature record: CXX_FEATURE:1cxx_lambda_init_captures
    Feature record: CXX_FEATURE:1cxx_local_type_template_args
    Feature record: CXX_FEATURE:1cxx_long_long_type
    Feature record: CXX_FEATURE:1cxx_noexcept
    Feature record: CXX_FEATURE:1cxx_nonstatic_member_init
    Feature record: CXX_FEATURE:1cxx_nullptr
    Feature record: CXX_FEATURE:1cxx_override
    Feature record: CXX_FEATURE:1cxx_range_for
    Feature record: CXX_FEATURE:1cxx_raw_string_literals
    Feature record: CXX_FEATURE:1cxx_reference_qualified_functions
    Feature record: CXX_FEATURE:1cxx_relaxed_constexpr
    Feature record: CXX_FEATURE:1cxx_return_type_deduction
    Feature record: CXX_FEATURE:1cxx_right_angle_brackets
    Feature record: CXX_FEATURE:1cxx_rvalue_references
    Feature record: CXX_FEATURE:1cxx_sizeof_member
    Feature record: CXX_FEATURE:1cxx_static_assert
    Feature record: CXX_FEATURE:1cxx_strong_enums
    Feature record: CXX_FEATURE:1cxx_template_template_parameters
    Feature record: CXX_FEATURE:1cxx_thread_local
    Feature record: CXX_FEATURE:1cxx_trailing_return_types
    Feature record: CXX_FEATURE:1cxx_unicode_literals
    Feature record: CXX_FEATURE:1cxx_uniform_initialization
    Feature record: CXX_FEATURE:1cxx_unrestricted_unions
    Feature record: CXX_FEATURE:1cxx_user_literals
    Feature record: CXX_FEATURE:1cxx_variable_templates
    Feature record: CXX_FEATURE:1cxx_variadic_macros
    Feature record: CXX_FEATURE:1cxx_variadic_templates


Detecting CXX [-std=c++11] compiler features compiled with the following output:
Change Dir: /home/dev/node-td/td/build/CMakeFiles/CMakeTmp

Run Build Command:"/usr/bin/make" "cmTC_0975d/fast"
/usr/bin/make -f CMakeFiles/cmTC_0975d.dir/build.make CMakeFiles/cmTC_0975d.dir/build
make[1]: Entering directory '/home/dev/node-td/td/build/CMakeFiles/CMakeTmp'
Building CXX object CMakeFiles/cmTC_0975d.dir/feature_tests.cxx.o
/usr/bin/c++    -std=c++11 -o CMakeFiles/cmTC_0975d.dir/feature_tests.cxx.o -c /home/dev/node-td/td/build/CMakeFiles/feature_tests.cxx
Linking CXX executable cmTC_0975d
/usr/bin/cmake -E cmake_link_script CMakeFiles/cmTC_0975d.dir/link.txt --verbose=1
/usr/bin/c++       -rdynamic CMakeFiles/cmTC_0975d.dir/feature_tests.cxx.o  -o cmTC_0975d 
make[1]: Leaving directory '/home/dev/node-td/td/build/CMakeFiles/CMakeTmp'


    Feature record: CXX_FEATURE:0cxx_aggregate_default_initializers
    Feature record: CXX_FEATURE:1cxx_alias_templates
    Feature record: CXX_FEATURE:1cxx_alignas
    Feature record: CXX_FEATURE:1cxx_alignof
    Feature record: CXX_FEATURE:1cxx_attributes
    Feature record: CXX_FEATURE:0cxx_attribute_deprecated
    Feature record: CXX_FEATURE:1cxx_auto_type
    Feature record: CXX_FEATURE:0cxx_binary_literals
    Feature record: CXX_FEATURE:1cxx_constexpr
    Feature record: CXX_FEATURE:0cxx_contextual_conversions
    Feature record: CXX_FEATURE:1cxx_decltype
    Feature record: CXX_FEATURE:0cxx_decltype_auto
    Feature record: CXX_FEATURE:1cxx_decltype_incomplete_return_types
    Feature record: CXX_FEATURE:1cxx_default_function_template_args
    Feature record: CXX_FEATURE:1cxx_defaulted_functions
    Feature record: CXX_FEATURE:1cxx_defaulted_move_initializers
    Feature record: CXX_FEATURE:1cxx_delegating_constructors
    Feature record: CXX_FEATURE:1cxx_deleted_functions
    Feature record: CXX_FEATURE:0cxx_digit_separators
    Feature record: CXX_FEATURE:1cxx_enum_forward_declarations
    Feature record: CXX_FEATURE:1cxx_explicit_conversions
    Feature record: CXX_FEATURE:1cxx_extended_friend_declarations
    Feature record: CXX_FEATURE:1cxx_extern_templates
    Feature record: CXX_FEATURE:1cxx_final
    Feature record: CXX_FEATURE:1cxx_func_identifier
    Feature record: CXX_FEATURE:1cxx_generalized_initializers
    Feature record: CXX_FEATURE:0cxx_generic_lambdas
    Feature record: CXX_FEATURE:1cxx_inheriting_constructors
    Feature record: CXX_FEATURE:1cxx_inline_namespaces
    Feature record: CXX_FEATURE:1cxx_lambdas
    Feature record: CXX_FEATURE:0cxx_lambda_init_captures
    Feature record: CXX_FEATURE:1cxx_local_type_template_args
    Feature record: CXX_FEATURE:1cxx_long_long_type
    Feature record: CXX_FEATURE:1cxx_noexcept
    Feature record: CXX_FEATURE:1cxx_nonstatic_member_init
    Feature record: CXX_FEATURE:1cxx_nullptr
    Feature record: CXX_FEATURE:1cxx_override
    Feature record: CXX_FEATURE:1cxx_range_for
    Feature record: CXX_FEATURE:1cxx_raw_string_literals
    Feature record: CXX_FEATURE:1cxx_reference_qualified_functions
    Feature record: CXX_FEATURE:0cxx_relaxed_constexpr
    Feature record: CXX_FEATURE:0cxx_return_type_deduction
    Feature record: CXX_FEATURE:1cxx_right_angle_brackets
    Feature record: CXX_FEATURE:1cxx_rvalue_references
    Feature record: CXX_FEATURE:1cxx_sizeof_member
    Feature record: CXX_FEATURE:1cxx_static_assert
    Feature record: CXX_FEATURE:1cxx_strong_enums
    Feature record: CXX_FEATURE:1cxx_template_template_parameters
    Feature record: CXX_FEATURE:1cxx_thread_local
    Feature record: CXX_FEATURE:1cxx_trailing_return_types
    Feature record: CXX_FEATURE:1cxx_unicode_literals
    Feature record: CXX_FEATURE:1cxx_uniform_initialization
    Feature record: CXX_FEATURE:1cxx_unrestricted_unions
    Feature record: CXX_FEATURE:1cxx_user_literals
    Feature record: CXX_FEATURE:0cxx_variable_templates
    Feature record: CXX_FEATURE:1cxx_variadic_macros
    Feature record: CXX_FEATURE:1cxx_variadic_templates


Detecting CXX [-std=c++98] compiler features compiled with the following output:
Change Dir: /home/dev/node-td/td/build/CMakeFiles/CMakeTmp

Run Build Command:"/usr/bin/make" "cmTC_85f29/fast"
/usr/bin/make -f CMakeFiles/cmTC_85f29.dir/build.make CMakeFiles/cmTC_85f29.dir/build
make[1]: Entering directory '/home/dev/node-td/td/build/CMakeFiles/CMakeTmp'
Building CXX object CMakeFiles/cmTC_85f29.dir/feature_tests.cxx.o
/usr/bin/c++    -std=c++98 -o CMakeFiles/cmTC_85f29.dir/feature_tests.cxx.o -c /home/dev/node-td/td/build/CMakeFiles/feature_tests.cxx
Linking CXX executable cmTC_85f29
/usr/bin/cmake -E cmake_link_script CMakeFiles/cmTC_85f29.dir/link.txt --verbose=1
/usr/bin/c++       -rdynamic CMakeFiles/cmTC_85f29.dir/feature_tests.cxx.o  -o cmTC_85f29 
make[1]: Leaving directory '/home/dev/node-td/td/build/CMakeFiles/CMakeTmp'


    Feature record: CXX_FEATURE:0cxx_aggregate_default_initializers
    Feature record: CXX_FEATURE:0cxx_alias_templates
    Feature record: CXX_FEATURE:0cxx_alignas
    Feature record: CXX_FEATURE:0cxx_alignof
    Feature record: CXX_FEATURE:0cxx_attributes
    Feature record: CXX_FEATURE:0cxx_attribute_deprecated
    Feature record: CXX_FEATURE:0cxx_auto_type
    Feature record: CXX_FEATURE:0cxx_binary_literals
    Feature record: CXX_FEATURE:0cxx_constexpr
    Feature record: CXX_FEATURE:0cxx_contextual_conversions
    Feature record: CXX_FEATURE:0cxx_decltype
    Feature record: CXX_FEATURE:0cxx_decltype_auto
    Feature record: CXX_FEATURE:0cxx_decltype_incomplete_return_types
    Feature record: CXX_FEATURE:0cxx_default_function_template_args
    Feature record: CXX_FEATURE:0cxx_defaulted_functions
    Feature record: CXX_FEATURE:0cxx_defaulted_move_initializers
    Feature record: CXX_FEATURE:0cxx_delegating_constructors
    Feature record: CXX_FEATURE:0cxx_deleted_functions
    Feature record: CXX_FEATURE:0cxx_digit_separators
    Feature record: CXX_FEATURE:0cxx_enum_forward_declarations
    Feature record: CXX_FEATURE:0cxx_explicit_conversions
    Feature record: CXX_FEATURE:0cxx_extended_friend_declarations
    Feature record: CXX_FEATURE:0cxx_extern_templates
    Feature record: CXX_FEATURE:0cxx_final
    Feature record: CXX_FEATURE:0cxx_func_identifier
    Feature record: CXX_FEATURE:0cxx_generalized_initializers
    Feature record: CXX_FEATURE:0cxx_generic_lambdas
    Feature record: CXX_FEATURE:0cxx_inheriting_constructors
    Feature record: CXX_FEATURE:0cxx_inline_namespaces
    Feature record: CXX_FEATURE:0cxx_lambdas
    Feature record: CXX_FEATURE:0cxx_lambda_init_captures
    Feature record: CXX_FEATURE:0cxx_local_type_template_args
    Feature record: CXX_FEATURE:0cxx_long_long_type
    Feature record: CXX_FEATURE:0cxx_noexcept
    Feature record: CXX_FEATURE:0cxx_nonstatic_member_init
    Feature record: CXX_FEATURE:0cxx_nullptr
    Feature record: CXX_FEATURE:0cxx_override
    Feature record: CXX_FEATURE:0cxx_range_for
    Feature record: CXX_FEATURE:0cxx_raw_string_literals
    Feature record: CXX_FEATURE:0cxx_reference_qualified_functions
    Feature record: CXX_FEATURE:0cxx_relaxed_constexpr
    Feature record: CXX_FEATURE:0cxx_return_type_deduction
    Feature record: CXX_FEATURE:0cxx_right_angle_brackets
    Feature record: CXX_FEATURE:0cxx_rvalue_references
    Feature record: CXX_FEATURE:0cxx_sizeof_member
    Feature record: CXX_FEATURE:0cxx_static_assert
    Feature record: CXX_FEATURE:0cxx_strong_enums
    Feature record: CXX_FEATURE:1cxx_template_template_parameters
    Feature record: CXX_FEATURE:0cxx_thread_local
    Feature record: CXX_FEATURE:0cxx_trailing_return_types
    Feature record: CXX_FEATURE:0cxx_unicode_literals
    Feature record: CXX_FEATURE:0cxx_uniform_initialization
    Feature record: CXX_FEATURE:0cxx_unrestricted_unions
    Feature record: CXX_FEATURE:0cxx_user_literals
    Feature record: CXX_FEATURE:0cxx_variable_templates
    Feature record: CXX_FEATURE:0cxx_variadic_macros
    Feature record: CXX_FEATURE:0cxx_variadic_templates
Determining if the C compiler works passed with the following output:
Change Dir: /home/dev/node-td/td/build/CMakeFiles/CMakeTmp

Run Build Command:"/usr/bin/make" "cmTC_de07d/fast"
/usr/bin/make -f CMakeFiles/cmTC_de07d.dir/build.make CMakeFiles/cmTC_de07d.dir/build
make[1]: Entering directory '/home/dev/node-td/td/build/CMakeFiles/CMakeTmp'
Building C object CMakeFiles/cmTC_de07d.dir/testCCompiler.c.o
/usr/bin/cc    -o CMakeFiles/cmTC_de07d.dir/testCCompiler.c.o   -c /home/dev/node-td/td/build/CMakeFiles/CMakeTmp/testCCompiler.c
Linking C executable cmTC_de07d
/usr/bin/cmake -E cmake_link_script CMakeFiles/cmTC_de07d.dir/link.txt --verbose=1
/usr/bin/cc      -rdynamic CMakeFiles/cmTC_de07d.dir/testCCompiler.c.o  -o cmTC_de07d 
make[1]: Leaving directory '/home/dev/node-td/td/build/CMakeFiles/CMakeTmp'


Detecting C compiler ABI info compiled with the following output:
Change Dir: /home/dev/node-td/td/build/CMakeFiles/CMakeTmp

Run Build Command:"/usr/bin/make" "cmTC_f13cf/fast"
/usr/bin/make -f CMakeFiles/cmTC_f13cf.dir/build.make CMakeFiles/cmTC_f13cf.dir/build
make[1]: Entering directory '/home/dev/node-td/td/build/CMakeFiles/CMakeTmp'
Building C object CMakeFiles/cmTC_f13cf.dir/CMakeCCompilerABI.c.o
/usr/bin/cc    -o CMakeFiles/cmTC_f13cf.dir/CMakeCCompilerABI.c.o   -c /usr/share/cmake-3.10/Modules/CMakeCCompilerABI.c
Linking C executable cmTC_f13cf
/usr/bin/cmake -E cmake_link_script CMakeFiles/cmTC_f13cf.dir/link.txt --verbose=1
/usr/bin/cc     -v -rdynamic CMakeFiles/cmTC_f13cf.dir/CMakeCCompilerABI.c.o  -o cmTC_f13cf 
Using built-in specs.
COLLECT_GCC=/usr/bin/cc
COLLECT_LTO_WRAPPER=/usr/lib/gcc/x86_64-linux-gnu/7/lto-wrapper
OFFLOAD_TARGET_NAMES=nvptx-none
OFFLOAD_TARGET_DEFAULT=1
Target: x86_64-linux-gnu
Configured with: ../src/configure -v --with-pkgversion='Ubuntu 7.3.0-16ubuntu3' --with-bugurl=file:///usr/share/doc/gcc-7/README.Bugs --enable-languages=c,ada,c++,go,brig,d,fortran,objc,obj-c++ --prefix=/usr --with-gcc-major-version-only --with-as=/usr/bin/x86_64-linux-gnu-as --with-ld=/usr/bin/x86_64-linux-gnu-ld --program-suffix=-7 --program-prefix=x86_64-linux-gnu- --enable-shared --enable-linker-build-id --libexecdir=/usr/lib --without-included-gettext --enable-threads=posix --libdir=/usr/lib --enable-nls --with-sysroot=/ --enable-clocale=gnu --enable-libstdcxx-debug --enable-libstdcxx-time=yes --with-default-libstdcxx-abi=new --enable-gnu-unique-object --disable-vtable-verify --enable-libmpx --enable-plugin --enable-default-pie --with-system-zlib --with-target-system-zlib --enable-objc-gc=auto --enable-multiarch --disable-werror --with-arch-32=i686 --with-abi=m64 --with-multilib-list=m32,m64,mx32 --enable-multilib --with-tune=generic --enable-offload-targets=nvptx-none --without-cuda-driver --enable-checking=release --build=x86_64-linux-gnu --host=x86_64-linux-gnu --target=x86_64-linux-gnu
Thread model: posix
gcc version 7.3.0 (Ubuntu 7.3.0-16ubuntu3) 
COMPILER_PATH=/usr/lib/gcc/x86_64-linux-gnu/7/:/usr/lib/gcc/x86_64-linux-gnu/7/:/usr/lib/gcc/x86_64-linux-gnu/:/usr/lib/gcc/x86_64-linux-gnu/7/:/usr/lib/gcc/x86_64-linux-gnu/
LIBRARY_PATH=/usr/lib/gcc/x86_64-linux-gnu/7/:/usr/lib/gcc/x86_64-linux-gnu/7/../../../x86_64-linux-gnu/:/usr/lib/gcc/x86_64-linux-gnu/7/../../../../lib/:/lib/x86_64-linux-gnu/:/lib/../lib/:/usr/lib/x86_64-linux-gnu/:/usr/lib/../lib/:/usr/lib/gcc/x86_64-linux-gnu/7/../../../:/lib/:/usr/lib/
COLLECT_GCC_OPTIONS='-v' '-rdynamic' '-o' 'cmTC_f13cf' '-mtune=generic' '-march=x86-64'
 /usr/lib/gcc/x86_64-linux-gnu/7/collect2 -plugin /usr/lib/gcc/x86_64-linux-gnu/7/liblto_plugin.so -plugin-opt=/usr/lib/gcc/x86_64-linux-gnu/7/lto-wrapper -plugin-opt=-fresolution=/tmp/ccLMLf5n.res -plugin-opt=-pass-through=-lgcc -plugin-opt=-pass-through=-lgcc_s -plugin-opt=-pass-through=-lc -plugin-opt=-pass-through=-lgcc -plugin-opt=-pass-through=-lgcc_s --sysroot=/ --build-id --eh-frame-hdr -m elf_x86_64 --hash-style=gnu --as-needed -export-dynamic -dynamic-linker /lib64/ld-linux-x86-64.so.2 -pie -z now -z relro -o cmTC_f13cf /usr/lib/gcc/x86_64-linux-gnu/7/../../../x86_64-linux-gnu/Scrt1.o /usr/lib/gcc/x86_64-linux-gnu/7/../../../x86_64-linux-gnu/crti.o /usr/lib/gcc/x86_64-linux-gnu/7/crtbeginS.o -L/usr/lib/gcc/x86_64-linux-gnu/7 -L/usr/lib/gcc/x86_64-linux-gnu/7/../../../x86_64-linux-gnu -L/usr/lib/gcc/x86_64-linux-gnu/7/../../../../lib -L/lib/x86_64-linux-gnu -L/lib/../lib -L/usr/lib/x86_64-linux-gnu -L/usr/lib/../lib -L/usr/lib/gcc/x86_64-linux-gnu/7/../../.. CMakeFiles/cmTC_f13cf.dir/CMakeCCompilerABI.c.o -lgcc --push-state --as-needed -lgcc_s --pop-state -lc -lgcc --push-state --as-needed -lgcc_s --pop-state /usr/lib/gcc/x86_64-linux-gnu/7/crtendS.o /usr/lib/gcc/x86_64-linux-gnu/7/../../../x86_64-linux-gnu/crtn.o
COLLECT_GCC_OPTIONS='-v' '-rdynamic' '-o' 'cmTC_f13cf' '-mtune=generic' '-march=x86-64'
make[1]: Leaving directory '/home/dev/node-td/td/build/CMakeFiles/CMakeTmp'


Parsed C implicit link information from above output:
  link line regex: [^( *|.*[/\])(ld|CMAKE_LINK_STARTFILE-NOTFOUND|([^/\]+-)?ld|collect2)[^/\]*( |$)]
  ignore line: [Change Dir: /home/dev/node-td/td/build/CMakeFiles/CMakeTmp]
  ignore line: []
  ignore line: [Run Build Command:"/usr/bin/make" "cmTC_f13cf/fast"]
  ignore line: [/usr/bin/make -f CMakeFiles/cmTC_f13cf.dir/build.make CMakeFiles/cmTC_f13cf.dir/build]
  ignore line: [make[1]: Entering directory '/home/dev/node-td/td/build/CMakeFiles/CMakeTmp']
  ignore line: [Building C object CMakeFiles/cmTC_f13cf.dir/CMakeCCompilerABI.c.o]
  ignore line: [/usr/bin/cc    -o CMakeFiles/cmTC_f13cf.dir/CMakeCCompilerABI.c.o   -c /usr/share/cmake-3.10/Modules/CMakeCCompilerABI.c]
  ignore line: [Linking C executable cmTC_f13cf]
  ignore line: [/usr/bin/cmake -E cmake_link_script CMakeFiles/cmTC_f13cf.dir/link.txt --verbose=1]
  ignore line: [/usr/bin/cc     -v -rdynamic CMakeFiles/cmTC_f13cf.dir/CMakeCCompilerABI.c.o  -o cmTC_f13cf ]
  ignore line: [Using built-in specs.]
  ignore line: [COLLECT_GCC=/usr/bin/cc]
  ignore line: [COLLECT_LTO_WRAPPER=/usr/lib/gcc/x86_64-linux-gnu/7/lto-wrapper]
  ignore line: [OFFLOAD_TARGET_NAMES=nvptx-none]
  ignore line: [OFFLOAD_TARGET_DEFAULT=1]
  ignore line: [Target: x86_64-linux-gnu]
  ignore line: [Configured with: ../src/configure -v --with-pkgversion='Ubuntu 7.3.0-16ubuntu3' --with-bugurl=file:///usr/share/doc/gcc-7/README.Bugs --enable-languages=c,ada,c++,go,brig,d,fortran,objc,obj-c++ --prefix=/usr --with-gcc-major-version-only --with-as=/usr/bin/x86_64-linux-gnu-as --with-ld=/usr/bin/x86_64-linux-gnu-ld --program-suffix=-7 --program-prefix=x86_64-linux-gnu- --enable-shared --enable-linker-build-id --libexecdir=/usr/lib --without-included-gettext --enable-threads=posix --libdir=/usr/lib --enable-nls --with-sysroot=/ --enable-clocale=gnu --enable-libstdcxx-debug --enable-libstdcxx-time=yes --with-default-libstdcxx-abi=new --enable-gnu-unique-object --disable-vtable-verify --enable-libmpx --enable-plugin --enable-default-pie --with-system-zlib --with-target-system-zlib --enable-objc-gc=auto --enable-multiarch --disable-werror --with-arch-32=i686 --with-abi=m64 --with-multilib-list=m32,m64,mx32 --enable-multilib --with-tune=generic --enable-offload-targets=nvptx-none --without-cuda-driver --enable-checking=release --build=x86_64-linux-gnu --host=x86_64-linux-gnu --target=x86_64-linux-gnu]
  ignore line: [Thread model: posix]
  ignore line: [gcc version 7.3.0 (Ubuntu 7.3.0-16ubuntu3) ]
  ignore line: [COMPILER_PATH=/usr/lib/gcc/x86_64-linux-gnu/7/:/usr/lib/gcc/x86_64-linux-gnu/7/:/usr/lib/gcc/x86_64-linux-gnu/:/usr/lib/gcc/x86_64-linux-gnu/7/:/usr/lib/gcc/x86_64-linux-gnu/]
  ignore line: [LIBRARY_PATH=/usr/lib/gcc/x86_64-linux-gnu/7/:/usr/lib/gcc/x86_64-linux-gnu/7/../../../x86_64-linux-gnu/:/usr/lib/gcc/x86_64-linux-gnu/7/../../../../lib/:/lib/x86_64-linux-gnu/:/lib/../lib/:/usr/lib/x86_64-linux-gnu/:/usr/lib/../lib/:/usr/lib/gcc/x86_64-linux-gnu/7/../../../:/lib/:/usr/lib/]
  ignore line: [COLLECT_GCC_OPTIONS='-v' '-rdynamic' '-o' 'cmTC_f13cf' '-mtune=generic' '-march=x86-64']
  link line: [ /usr/lib/gcc/x86_64-linux-gnu/7/collect2 -plugin /usr/lib/gcc/x86_64-linux-gnu/7/liblto_plugin.so -plugin-opt=/usr/lib/gcc/x86_64-linux-gnu/7/lto-wrapper -plugin-opt=-fresolution=/tmp/ccLMLf5n.res -plugin-opt=-pass-through=-lgcc -plugin-opt=-pass-through=-lgcc_s -plugin-opt=-pass-through=-lc -plugin-opt=-pass-through=-lgcc -plugin-opt=-pass-through=-lgcc_s --sysroot=/ --build-id --eh-frame-hdr -m elf_x86_64 --hash-style=gnu --as-needed -export-dynamic -dynamic-linker /lib64/ld-linux-x86-64.so.2 -pie -z now -z relro -o cmTC_f13cf /usr/lib/gcc/x86_64-linux-gnu/7/../../../x86_64-linux-gnu/Scrt1.o /usr/lib/gcc/x86_64-linux-gnu/7/../../../x86_64-linux-gnu/crti.o /usr/lib/gcc/x86_64-linux-gnu/7/crtbeginS.o -L/usr/lib/gcc/x86_64-linux-gnu/7 -L/usr/lib/gcc/x86_64-linux-gnu/7/../../../x86_64-linux-gnu -L/usr/lib/gcc/x86_64-linux-gnu/7/../../../../lib -L/lib/x86_64-linux-gnu -L/lib/../lib -L/usr/lib/x86_64-linux-gnu -L/usr/lib/../lib -L/usr/lib/gcc/x86_64-linux-gnu/7/../../.. CMakeFiles/cmTC_f13cf.dir/CMakeCCompilerABI.c.o -lgcc --push-state --as-needed -lgcc_s --pop-state -lc -lgcc --push-state --as-needed -lgcc_s --pop-state /usr/lib/gcc/x86_64-linux-gnu/7/crtendS.o /usr/lib/gcc/x86_64-linux-gnu/7/../../../x86_64-linux-gnu/crtn.o]
    arg [/usr/lib/gcc/x86_64-linux-gnu/7/collect2] ==> ignore
    arg [-plugin] ==> ignore
    arg [/usr/lib/gcc/x86_64-linux-gnu/7/liblto_plugin.so] ==> ignore
    arg [-plugin-opt=/usr/lib/gcc/x86_64-linux-gnu/7/lto-wrapper] ==> ignore
    arg [-plugin-opt=-fresolution=/tmp/ccLMLf5n.res] ==> ignore
    arg [-plugin-opt=-pass-through=-lgcc] ==> ignore
    arg [-plugin-opt=-pass-through=-lgcc_s] ==> ignore
    arg [-plugin-opt=-pass-through=-lc] ==> ignore
    arg [-plugin-opt=-pass-through=-lgcc] ==> ignore
    arg [-plugin-opt=-pass-through=-lgcc_s] ==> ignore
    arg [--sysroot=/] ==> ignore
    arg [--build-id] ==> ignore
    arg [--eh-frame-hdr] ==> ignore
    arg [-m] ==> ignore
    arg [elf_x86_64] ==> ignore
    arg [--hash-style=gnu] ==> ignore
    arg [--as-needed] ==> ignore
    arg [-export-dynamic] ==> ignore
    arg [-dynamic-linker] ==> ignore
    arg [/lib64/ld-linux-x86-64.so.2] ==> ignore
    arg [-pie] ==> ignore
    arg [-znow] ==> ignore
    arg [-zrelro] ==> ignore
    arg [-o] ==> ignore
    arg [cmTC_f13cf] ==> ignore
    arg [/usr/lib/gcc/x86_64-linux-gnu/7/../../../x86_64-linux-gnu/Scrt1.o] ==> ignore
    arg [/usr/lib/gcc/x86_64-linux-gnu/7/../../../x86_64-linux-gnu/crti.o] ==> ignore
    arg [/usr/lib/gcc/x86_64-linux-gnu/7/crtbeginS.o] ==> ignore
    arg [-L/usr/lib/gcc/x86_64-linux-gnu/7] ==> dir [/usr/lib/gcc/x86_64-linux-gnu/7]
    arg [-L/usr/lib/gcc/x86_64-linux-gnu/7/../../../x86_64-linux-gnu] ==> dir [/usr/lib/gcc/x86_64-linux-gnu/7/../../../x86_64-linux-gnu]
    arg [-L/usr/lib/gcc/x86_64-linux-gnu/7/../../../../lib] ==> dir [/usr/lib/gcc/x86_64-linux-gnu/7/../../../../lib]
    arg [-L/lib/x86_64-linux-gnu] ==> dir [/lib/x86_64-linux-gnu]
    arg [-L/lib/../lib] ==> dir [/lib/../lib]
    arg [-L/usr/lib/x86_64-linux-gnu] ==> dir [/usr/lib/x86_64-linux-gnu]
    arg [-L/usr/lib/../lib] ==> dir [/usr/lib/../lib]
    arg [-L/usr/lib/gcc/x86_64-linux-gnu/7/../../..] ==> dir [/usr/lib/gcc/x86_64-linux-gnu/7/../../..]
    arg [CMakeFiles/cmTC_f13cf.dir/CMakeCCompilerABI.c.o] ==> ignore
    arg [-lgcc] ==> lib [gcc]
    arg [--push-state] ==> ignore
    arg [--as-needed] ==> ignore
    arg [-lgcc_s] ==> lib [gcc_s]
    arg [--pop-state] ==> ignore
    arg [-lc] ==> lib [c]
    arg [-lgcc] ==> lib [gcc]
    arg [--push-state] ==> ignore
    arg [--as-needed] ==> ignore
    arg [-lgcc_s] ==> lib [gcc_s]
    arg [--pop-state] ==> ignore
    arg [/usr/lib/gcc/x86_64-linux-gnu/7/crtendS.o] ==> ignore
    arg [/usr/lib/gcc/x86_64-linux-gnu/7/../../../x86_64-linux-gnu/crtn.o] ==> ignore
  collapse library dir [/usr/lib/gcc/x86_64-linux-gnu/7] ==> [/usr/lib/gcc/x86_64-linux-gnu/7]
  collapse library dir [/usr/lib/gcc/x86_64-linux-gnu/7/../../../x86_64-linux-gnu] ==> [/usr/lib/x86_64-linux-gnu]
  collapse library dir [/usr/lib/gcc/x86_64-linux-gnu/7/../../../../lib] ==> [/usr/lib]
  collapse library dir [/lib/x86_64-linux-gnu] ==> [/lib/x86_64-linux-gnu]
  collapse library dir [/lib/../lib] ==> [/lib]
  collapse library dir [/usr/lib/x86_64-linux-gnu] ==> [/usr/lib/x86_64-linux-gnu]
  collapse library dir [/usr/lib/../lib] ==> [/usr/lib]
  collapse library dir [/usr/lib/gcc/x86_64-linux-gnu/7/../../..] ==> [/usr/lib]
  implicit libs: [gcc;gcc_s;c;gcc;gcc_s]
  implicit dirs: [/usr/lib/gcc/x86_64-linux-gnu/7;/usr/lib/x86_64-linux-gnu;/usr/lib;/lib/x86_64-linux-gnu;/lib]
  implicit fwks: []




Detecting C [-std=c11] compiler features compiled with the following output:
Change Dir: /home/dev/node-td/td/build/CMakeFiles/CMakeTmp

Run Build Command:"/usr/bin/make" "cmTC_f393f/fast"
/usr/bin/make -f CMakeFiles/cmTC_f393f.dir/build.make CMakeFiles/cmTC_f393f.dir/build
make[1]: Entering directory '/home/dev/node-td/td/build/CMakeFiles/CMakeTmp'
Building C object CMakeFiles/cmTC_f393f.dir/feature_tests.c.o
/usr/bin/cc   -std=c11 -o CMakeFiles/cmTC_f393f.dir/feature_tests.c.o   -c /home/dev/node-td/td/build/CMakeFiles/feature_tests.c
Linking C executable cmTC_f393f
/usr/bin/cmake -E cmake_link_script CMakeFiles/cmTC_f393f.dir/link.txt --verbose=1
/usr/bin/cc      -rdynamic CMakeFiles/cmTC_f393f.dir/feature_tests.c.o  -o cmTC_f393f 
make[1]: Leaving directory '/home/dev/node-td/td/build/CMakeFiles/CMakeTmp'


    Feature record: C_FEATURE:1c_function_prototypes
    Feature record: C_FEATURE:1c_restrict
    Feature record: C_FEATURE:1c_static_assert
    Feature record: C_FEATURE:1c_variadic_macros


Detecting C [-std=c99] compiler features compiled with the following output:
Change Dir: /home/dev/node-td/td/build/CMakeFiles/CMakeTmp

Run Build Command:"/usr/bin/make" "cmTC_380ee/fast"
/usr/bin/make -f CMakeFiles/cmTC_380ee.dir/build.make CMakeFiles/cmTC_380ee.dir/build
make[1]: Entering directory '/home/dev/node-td/td/build/CMakeFiles/CMakeTmp'
Building C object CMakeFiles/cmTC_380ee.dir/feature_tests.c.o
/usr/bin/cc   -std=c99 -o CMakeFiles/cmTC_380ee.dir/feature_tests.c.o   -c /home/dev/node-td/td/build/CMakeFiles/feature_tests.c
Linking C executable cmTC_380ee
/usr/bin/cmake -E cmake_link_script CMakeFiles/cmTC_380ee.dir/link.txt --verbose=1
/usr/bin/cc      -rdynamic CMakeFiles/cmTC_380ee.dir/feature_tests.c.o  -o cmTC_380ee 
make[1]: Leaving directory '/home/dev/node-td/td/build/CMakeFiles/CMakeTmp'


    Feature record: C_FEATURE:1c_function_prototypes
    Feature record: C_FEATURE:1c_restrict
    Feature record: C_FEATURE:0c_static_assert
    Feature record: C_FEATURE:1c_variadic_macros


Detecting C [-std=c90] compiler features compiled with the following output:
Change Dir: /home/dev/node-td/td/build/CMakeFiles/CMakeTmp

Run Build Command:"/usr/bin/make" "cmTC_8db11/fast"
/usr/bin/make -f CMakeFiles/cmTC_8db11.dir/build.make CMakeFiles/cmTC_8db11.dir/build
make[1]: Entering directory '/home/dev/node-td/td/build/CMakeFiles/CMakeTmp'
Building C object CMakeFiles/cmTC_8db11.dir/feature_tests.c.o
/usr/bin/cc   -std=c90 -o CMakeFiles/cmTC_8db11.dir/feature_tests.c.o   -c /home/dev/node-td/td/build/CMakeFiles/feature_tests.c
Linking C executable cmTC_8db11
/usr/bin/cmake -E cmake_link_script CMakeFiles/cmTC_8db11.dir/link.txt --verbose=1
/usr/bin/cc      -rdynamic CMakeFiles/cmTC_8db11.dir/feature_tests.c.o  -o cmTC_8db11 
make[1]: Leaving directory '/home/dev/node-td/td/build/CMakeFiles/CMakeTmp'


    Feature record: C_FEATURE:1c_function_prototypes
    Feature record: C_FEATURE:0c_restrict
    Feature record: C_FEATURE:0c_static_assert
    Feature record: C_FEATURE:0c_variadic_macros
Performing C++ SOURCE FILE Test HAVE_STD14 succeeded with the following output:
Change Dir: /home/dev/node-td/td/build/CMakeFiles/CMakeTmp

Run Build Command:"/usr/bin/make" "cmTC_d1a20/fast"
/usr/bin/make -f CMakeFiles/cmTC_d1a20.dir/build.make CMakeFiles/cmTC_d1a20.dir/build
make[1]: Entering directory '/home/dev/node-td/td/build/CMakeFiles/CMakeTmp'
Building CXX object CMakeFiles/cmTC_d1a20.dir/src.cxx.o
/usr/bin/c++    -DHAVE_STD14 -fPIE   -std=c++14 -o CMakeFiles/cmTC_d1a20.dir/src.cxx.o -c /home/dev/node-td/td/build/CMakeFiles/CMakeTmp/src.cxx
Linking CXX executable cmTC_d1a20
/usr/bin/cmake -E cmake_link_script CMakeFiles/cmTC_d1a20.dir/link.txt --verbose=1
/usr/bin/c++   -DHAVE_STD14    -rdynamic CMakeFiles/cmTC_d1a20.dir/src.cxx.o  -o cmTC_d1a20 
make[1]: Leaving directory '/home/dev/node-td/td/build/CMakeFiles/CMakeTmp'

Source file was:
int main() { return 0; }
Determining if the include file pthread.h exists passed with the following output:
Change Dir: /home/dev/node-td/td/build/CMakeFiles/CMakeTmp

Run Build Command:"/usr/bin/make" "cmTC_0c65d/fast"
/usr/bin/make -f CMakeFiles/cmTC_0c65d.dir/build.make CMakeFiles/cmTC_0c65d.dir/build
make[1]: Entering directory '/home/dev/node-td/td/build/CMakeFiles/CMakeTmp'
Building C object CMakeFiles/cmTC_0c65d.dir/CheckIncludeFile.c.o
/usr/bin/cc   -fPIE   -o CMakeFiles/cmTC_0c65d.dir/CheckIncludeFile.c.o   -c /home/dev/node-td/td/build/CMakeFiles/CMakeTmp/CheckIncludeFile.c
Linking C executable cmTC_0c65d
/usr/bin/cmake -E cmake_link_script CMakeFiles/cmTC_0c65d.dir/link.txt --verbose=1
/usr/bin/cc      -rdynamic CMakeFiles/cmTC_0c65d.dir/CheckIncludeFile.c.o  -o cmTC_0c65d 
make[1]: Leaving directory '/home/dev/node-td/td/build/CMakeFiles/CMakeTmp'


Performing C++ SOURCE FILE Test HAVE_CXX_FLAG_WALL succeeded with the following output:
Change Dir: /home/dev/node-td/td/build/CMakeFiles/CMakeTmp

Run Build Command:"/usr/bin/make" "cmTC_6dc5b/fast"
/usr/bin/make -f CMakeFiles/cmTC_6dc5b.dir/build.make CMakeFiles/cmTC_6dc5b.dir/build
make[1]: Entering directory '/home/dev/node-td/td/build/CMakeFiles/CMakeTmp'
Building CXX object CMakeFiles/cmTC_6dc5b.dir/src.cxx.o
/usr/bin/c++    -pthread -std=c++14 -fno-omit-frame-pointer -fno-exceptions -fno-rtti -ffunction-sections -fdata-sections -DHAVE_CXX_FLAG_WALL -Wall -fPIE   -Wall -o CMakeFiles/cmTC_6dc5b.dir/src.cxx.o -c /home/dev/node-td/td/build/CMakeFiles/CMakeTmp/src.cxx
Linking CXX executable cmTC_6dc5b
/usr/bin/cmake -E cmake_link_script CMakeFiles/cmTC_6dc5b.dir/link.txt --verbose=1
/usr/bin/c++   -pthread -std=c++14 -fno-omit-frame-pointer -fno-exceptions -fno-rtti -ffunction-sections -fdata-sections -DHAVE_CXX_FLAG_WALL -Wall    -rdynamic CMakeFiles/cmTC_6dc5b.dir/src.cxx.o  -o cmTC_6dc5b 
make[1]: Leaving directory '/home/dev/node-td/td/build/CMakeFiles/CMakeTmp'

Source file was:
int main() { return 0; }
Performing C++ SOURCE FILE Test HAVE_CXX_FLAG_WEXTRA succeeded with the following output:
Change Dir: /home/dev/node-td/td/build/CMakeFiles/CMakeTmp

Run Build Command:"/usr/bin/make" "cmTC_a0675/fast"
/usr/bin/make -f CMakeFiles/cmTC_a0675.dir/build.make CMakeFiles/cmTC_a0675.dir/build
make[1]: Entering directory '/home/dev/node-td/td/build/CMakeFiles/CMakeTmp'
Building CXX object CMakeFiles/cmTC_a0675.dir/src.cxx.o
/usr/bin/c++    -pthread -std=c++14 -fno-omit-frame-pointer -fno-exceptions -fno-rtti -ffunction-sections -fdata-sections -Wall -DHAVE_CXX_FLAG_WEXTRA -Wextra -fPIE   -Wextra -o CMakeFiles/cmTC_a0675.dir/src.cxx.o -c /home/dev/node-td/td/build/CMakeFiles/CMakeTmp/src.cxx
Linking CXX executable cmTC_a0675
/usr/bin/cmake -E cmake_link_script CMakeFiles/cmTC_a0675.dir/link.txt --verbose=1
/usr/bin/c++   -pthread -std=c++14 -fno-omit-frame-pointer -fno-exceptions -fno-rtti -ffunction-sections -fdata-sections -Wall -DHAVE_CXX_FLAG_WEXTRA -Wextra    -rdynamic CMakeFiles/cmTC_a0675.dir/src.cxx.o  -o cmTC_a0675 
make[1]: Leaving directory '/home/dev/node-td/td/build/CMakeFiles/CMakeTmp'

Source file was:
int main() { return 0; }
Performing C++ SOURCE FILE Test HAVE_CXX_FLAG_WIMPLICIT_FALLTHROUGH_2 succeeded with the following output:
Change Dir: /home/dev/node-td/td/build/CMakeFiles/CMakeTmp

Run Build Command:"/usr/bin/make" "cmTC_dac27/fast"
/usr/bin/make -f CMakeFiles/cmTC_dac27.dir/build.make CMakeFiles/cmTC_dac27.dir/build
make[1]: Entering directory '/home/dev/node-td/td/build/CMakeFiles/CMakeTmp'
Building CXX object CMakeFiles/cmTC_dac27.dir/src.cxx.o
/usr/bin/c++    -pthread -std=c++14 -fno-omit-frame-pointer -fno-exceptions -fno-rtti -ffunction-sections -fdata-sections -Wall -Wextra -DHAVE_CXX_FLAG_WIMPLICIT_FALLTHROUGH_2 -Wimplicit-fallthrough=2 -fPIE   -Wimplicit-fallthrough=2 -o CMakeFiles/cmTC_dac27.dir/src.cxx.o -c /home/dev/node-td/td/build/CMakeFiles/CMakeTmp/src.cxx
Linking CXX executable cmTC_dac27
/usr/bin/cmake -E cmake_link_script CMakeFiles/cmTC_dac27.dir/link.txt --verbose=1
/usr/bin/c++   -pthread -std=c++14 -fno-omit-frame-pointer -fno-exceptions -fno-rtti -ffunction-sections -fdata-sections -Wall -Wextra -DHAVE_CXX_FLAG_WIMPLICIT_FALLTHROUGH_2 -Wimplicit-fallthrough=2    -rdynamic CMakeFiles/cmTC_dac27.dir/src.cxx.o  -o cmTC_dac27 
make[1]: Leaving directory '/home/dev/node-td/td/build/CMakeFiles/CMakeTmp'

Source file was:
int main() { return 0; }
Performing C++ SOURCE FILE Test HAVE_CXX_FLAG_WPOINTER_ARITH succeeded with the following output:
Change Dir: /home/dev/node-td/td/build/CMakeFiles/CMakeTmp

Run Build Command:"/usr/bin/make" "cmTC_a5b1c/fast"
/usr/bin/make -f CMakeFiles/cmTC_a5b1c.dir/build.make CMakeFiles/cmTC_a5b1c.dir/build
make[1]: Entering directory '/home/dev/node-td/td/build/CMakeFiles/CMakeTmp'
Building CXX object CMakeFiles/cmTC_a5b1c.dir/src.cxx.o
/usr/bin/c++    -pthread -std=c++14 -fno-omit-frame-pointer -fno-exceptions -fno-rtti -ffunction-sections -fdata-sections -Wall -Wextra -Wimplicit-fallthrough=2 -DHAVE_CXX_FLAG_WPOINTER_ARITH -Wpointer-arith -fPIE   -Wpointer-arith -o CMakeFiles/cmTC_a5b1c.dir/src.cxx.o -c /home/dev/node-td/td/build/CMakeFiles/CMakeTmp/src.cxx
Linking CXX executable cmTC_a5b1c
/usr/bin/cmake -E cmake_link_script CMakeFiles/cmTC_a5b1c.dir/link.txt --verbose=1
/usr/bin/c++   -pthread -std=c++14 -fno-omit-frame-pointer -fno-exceptions -fno-rtti -ffunction-sections -fdata-sections -Wall -Wextra -Wimplicit-fallthrough=2 -DHAVE_CXX_FLAG_WPOINTER_ARITH -Wpointer-arith    -rdynamic CMakeFiles/cmTC_a5b1c.dir/src.cxx.o  -o cmTC_a5b1c 
make[1]: Leaving directory '/home/dev/node-td/td/build/CMakeFiles/CMakeTmp'

Source file was:
int main() { return 0; }
Performing C++ SOURCE FILE Test HAVE_CXX_FLAG_WCAST_QUAL succeeded with the following output:
Change Dir: /home/dev/node-td/td/build/CMakeFiles/CMakeTmp

Run Build Command:"/usr/bin/make" "cmTC_14a32/fast"
/usr/bin/make -f CMakeFiles/cmTC_14a32.dir/build.make CMakeFiles/cmTC_14a32.dir/build
make[1]: Entering directory '/home/dev/node-td/td/build/CMakeFiles/CMakeTmp'
Building CXX object CMakeFiles/cmTC_14a32.dir/src.cxx.o
/usr/bin/c++    -pthread -std=c++14 -fno-omit-frame-pointer -fno-exceptions -fno-rtti -ffunction-sections -fdata-sections -Wall -Wextra -Wimplicit-fallthrough=2 -Wpointer-arith -DHAVE_CXX_FLAG_WCAST_QUAL -Wcast-qual -fPIE   -Wcast-qual -o CMakeFiles/cmTC_14a32.dir/src.cxx.o -c /home/dev/node-td/td/build/CMakeFiles/CMakeTmp/src.cxx
Linking CXX executable cmTC_14a32
/usr/bin/cmake -E cmake_link_script CMakeFiles/cmTC_14a32.dir/link.txt --verbose=1
/usr/bin/c++   -pthread -std=c++14 -fno-omit-frame-pointer -fno-exceptions -fno-rtti -ffunction-sections -fdata-sections -Wall -Wextra -Wimplicit-fallthrough=2 -Wpointer-arith -DHAVE_CXX_FLAG_WCAST_QUAL -Wcast-qual    -rdynamic CMakeFiles/cmTC_14a32.dir/src.cxx.o  -o cmTC_14a32 
make[1]: Leaving directory '/home/dev/node-td/td/build/CMakeFiles/CMakeTmp'

Source file was:
int main() { return 0; }
Performing C++ SOURCE FILE Test HAVE_CXX_FLAG_WSIGN_COMPARE succeeded with the following output:
Change Dir: /home/dev/node-td/td/build/CMakeFiles/CMakeTmp

Run Build Command:"/usr/bin/make" "cmTC_20be9/fast"
/usr/bin/make -f CMakeFiles/cmTC_20be9.dir/build.make CMakeFiles/cmTC_20be9.dir/build
make[1]: Entering directory '/home/dev/node-td/td/build/CMakeFiles/CMakeTmp'
Building CXX object CMakeFiles/cmTC_20be9.dir/src.cxx.o
/usr/bin/c++    -pthread -std=c++14 -fno-omit-frame-pointer -fno-exceptions -fno-rtti -ffunction-sections -fdata-sections -Wall -Wextra -Wimplicit-fallthrough=2 -Wpointer-arith -Wcast-qual -DHAVE_CXX_FLAG_WSIGN_COMPARE -Wsign-compare -fPIE   -Wsign-compare -o CMakeFiles/cmTC_20be9.dir/src.cxx.o -c /home/dev/node-td/td/build/CMakeFiles/CMakeTmp/src.cxx
Linking CXX executable cmTC_20be9
/usr/bin/cmake -E cmake_link_script CMakeFiles/cmTC_20be9.dir/link.txt --verbose=1
/usr/bin/c++   -pthread -std=c++14 -fno-omit-frame-pointer -fno-exceptions -fno-rtti -ffunction-sections -fdata-sections -Wall -Wextra -Wimplicit-fallthrough=2 -Wpointer-arith -Wcast-qual -DHAVE_CXX_FLAG_WSIGN_COMPARE -Wsign-compare    -rdynamic CMakeFiles/cmTC_20be9.dir/src.cxx.o  -o cmTC_20be9 
make[1]: Leaving directory '/home/dev/node-td/td/build/CMakeFiles/CMakeTmp'

Source file was:
int main() { return 0; }
Performing C++ SOURCE FILE Test HAVE_CXX_FLAG_WDUPLICATED_BRANCHES succeeded with the following output:
Change Dir: /home/dev/node-td/td/build/CMakeFiles/CMakeTmp

Run Build Command:"/usr/bin/make" "cmTC_a5ed1/fast"
/usr/bin/make -f CMakeFiles/cmTC_a5ed1.dir/build.make CMakeFiles/cmTC_a5ed1.dir/build
make[1]: Entering directory '/home/dev/node-td/td/build/CMakeFiles/CMakeTmp'
Building CXX object CMakeFiles/cmTC_a5ed1.dir/src.cxx.o
/usr/bin/c++    -pthread -std=c++14 -fno-omit-frame-pointer -fno-exceptions -fno-rtti -ffunction-sections -fdata-sections -Wall -Wextra -Wimplicit-fallthrough=2 -Wpointer-arith -Wcast-qual -Wsign-compare -DHAVE_CXX_FLAG_WDUPLICATED_BRANCHES -Wduplicated-branches -fPIE   -Wduplicated-branches -o CMakeFiles/cmTC_a5ed1.dir/src.cxx.o -c /home/dev/node-td/td/build/CMakeFiles/CMakeTmp/src.cxx
Linking CXX executable cmTC_a5ed1
/usr/bin/cmake -E cmake_link_script CMakeFiles/cmTC_a5ed1.dir/link.txt --verbose=1
/usr/bin/c++   -pthread -std=c++14 -fno-omit-frame-pointer -fno-exceptions -fno-rtti -ffunction-sections -fdata-sections -Wall -Wextra -Wimplicit-fallthrough=2 -Wpointer-arith -Wcast-qual -Wsign-compare -DHAVE_CXX_FLAG_WDUPLICATED_BRANCHES -Wduplicated-branches    -rdynamic CMakeFiles/cmTC_a5ed1.dir/src.cxx.o  -o cmTC_a5ed1 
make[1]: Leaving directory '/home/dev/node-td/td/build/CMakeFiles/CMakeTmp'

Source file was:
int main() { return 0; }
Performing C++ SOURCE FILE Test HAVE_CXX_FLAG_WDUPLICATED_COND succeeded with the following output:
Change Dir: /home/dev/node-td/td/build/CMakeFiles/CMakeTmp

Run Build Command:"/usr/bin/make" "cmTC_f307f/fast"
/usr/bin/make -f CMakeFiles/cmTC_f307f.dir/build.make CMakeFiles/cmTC_f307f.dir/build
make[1]: Entering directory '/home/dev/node-td/td/build/CMakeFiles/CMakeTmp'
Building CXX object CMakeFiles/cmTC_f307f.dir/src.cxx.o
/usr/bin/c++    -pthread -std=c++14 -fno-omit-frame-pointer -fno-exceptions -fno-rtti -ffunction-sections -fdata-sections -Wall -Wextra -Wimplicit-fallthrough=2 -Wpointer-arith -Wcast-qual -Wsign-compare -Wduplicated-branches -DHAVE_CXX_FLAG_WDUPLICATED_COND -Wduplicated-cond -fPIE   -Wduplicated-cond -o CMakeFiles/cmTC_f307f.dir/src.cxx.o -c /home/dev/node-td/td/build/CMakeFiles/CMakeTmp/src.cxx
Linking CXX executable cmTC_f307f
/usr/bin/cmake -E cmake_link_script CMakeFiles/cmTC_f307f.dir/link.txt --verbose=1
/usr/bin/c++   -pthread -std=c++14 -fno-omit-frame-pointer -fno-exceptions -fno-rtti -ffunction-sections -fdata-sections -Wall -Wextra -Wimplicit-fallthrough=2 -Wpointer-arith -Wcast-qual -Wsign-compare -Wduplicated-branches -DHAVE_CXX_FLAG_WDUPLICATED_COND -Wduplicated-cond    -rdynamic CMakeFiles/cmTC_f307f.dir/src.cxx.o  -o cmTC_f307f 
make[1]: Leaving directory '/home/dev/node-td/td/build/CMakeFiles/CMakeTmp'

Source file was:
int main() { return 0; }
Performing C++ SOURCE FILE Test HAVE_CXX_FLAG_WALLOC_ZERO succeeded with the following output:
Change Dir: /home/dev/node-td/td/build/CMakeFiles/CMakeTmp

Run Build Command:"/usr/bin/make" "cmTC_7c220/fast"
/usr/bin/make -f CMakeFiles/cmTC_7c220.dir/build.make CMakeFiles/cmTC_7c220.dir/build
make[1]: Entering directory '/home/dev/node-td/td/build/CMakeFiles/CMakeTmp'
Building CXX object CMakeFiles/cmTC_7c220.dir/src.cxx.o
/usr/bin/c++    -pthread -std=c++14 -fno-omit-frame-pointer -fno-exceptions -fno-rtti -ffunction-sections -fdata-sections -Wall -Wextra -Wimplicit-fallthrough=2 -Wpointer-arith -Wcast-qual -Wsign-compare -Wduplicated-branches -Wduplicated-cond -DHAVE_CXX_FLAG_WALLOC_ZERO -Walloc-zero -fPIE   -Walloc-zero -o CMakeFiles/cmTC_7c220.dir/src.cxx.o -c /home/dev/node-td/td/build/CMakeFiles/CMakeTmp/src.cxx
Linking CXX executable cmTC_7c220
/usr/bin/cmake -E cmake_link_script CMakeFiles/cmTC_7c220.dir/link.txt --verbose=1
/usr/bin/c++   -pthread -std=c++14 -fno-omit-frame-pointer -fno-exceptions -fno-rtti -ffunction-sections -fdata-sections -Wall -Wextra -Wimplicit-fallthrough=2 -Wpointer-arith -Wcast-qual -Wsign-compare -Wduplicated-branches -Wduplicated-cond -DHAVE_CXX_FLAG_WALLOC_ZERO -Walloc-zero    -rdynamic CMakeFiles/cmTC_7c220.dir/src.cxx.o  -o cmTC_7c220 
make[1]: Leaving directory '/home/dev/node-td/td/build/CMakeFiles/CMakeTmp'

Source file was:
int main() { return 0; }
Performing C++ SOURCE FILE Test HAVE_CXX_FLAG_WLOGICAL_OP succeeded with the following output:
Change Dir: /home/dev/node-td/td/build/CMakeFiles/CMakeTmp

Run Build Command:"/usr/bin/make" "cmTC_fbb6d/fast"
/usr/bin/make -f CMakeFiles/cmTC_fbb6d.dir/build.make CMakeFiles/cmTC_fbb6d.dir/build
make[1]: Entering directory '/home/dev/node-td/td/build/CMakeFiles/CMakeTmp'
Building CXX object CMakeFiles/cmTC_fbb6d.dir/src.cxx.o
/usr/bin/c++    -pthread -std=c++14 -fno-omit-frame-pointer -fno-exceptions -fno-rtti -ffunction-sections -fdata-sections -Wall -Wextra -Wimplicit-fallthrough=2 -Wpointer-arith -Wcast-qual -Wsign-compare -Wduplicated-branches -Wduplicated-cond -Walloc-zero -DHAVE_CXX_FLAG_WLOGICAL_OP -Wlogical-op -fPIE   -Wlogical-op -o CMakeFiles/cmTC_fbb6d.dir/src.cxx.o -c /home/dev/node-td/td/build/CMakeFiles/CMakeTmp/src.cxx
Linking CXX executable cmTC_fbb6d
/usr/bin/cmake -E cmake_link_script CMakeFiles/cmTC_fbb6d.dir/link.txt --verbose=1
/usr/bin/c++   -pthread -std=c++14 -fno-omit-frame-pointer -fno-exceptions -fno-rtti -ffunction-sections -fdata-sections -Wall -Wextra -Wimplicit-fallthrough=2 -Wpointer-arith -Wcast-qual -Wsign-compare -Wduplicated-branches -Wduplicated-cond -Walloc-zero -DHAVE_CXX_FLAG_WLOGICAL_OP -Wlogical-op    -rdynamic CMakeFiles/cmTC_fbb6d.dir/src.cxx.o  -o cmTC_fbb6d 
make[1]: Leaving directory '/home/dev/node-td/td/build/CMakeFiles/CMakeTmp'

Source file was:
int main() { return 0; }
Performing C++ SOURCE FILE Test HAVE_CXX_FLAG_WTAUTOLOGICAL_COMPARE succeeded with the following output:
Change Dir: /home/dev/node-td/td/build/CMakeFiles/CMakeTmp

Run Build Command:"/usr/bin/make" "cmTC_42bc4/fast"
/usr/bin/make -f CMakeFiles/cmTC_42bc4.dir/build.make CMakeFiles/cmTC_42bc4.dir/build
make[1]: Entering directory '/home/dev/node-td/td/build/CMakeFiles/CMakeTmp'
Building CXX object CMakeFiles/cmTC_42bc4.dir/src.cxx.o
/usr/bin/c++    -pthread -std=c++14 -fno-omit-frame-pointer -fno-exceptions -fno-rtti -ffunction-sections -fdata-sections -Wall -Wextra -Wimplicit-fallthrough=2 -Wpointer-arith -Wcast-qual -Wsign-compare -Wduplicated-branches -Wduplicated-cond -Walloc-zero -Wlogical-op -DHAVE_CXX_FLAG_WTAUTOLOGICAL_COMPARE -Wno-tautological-compare -fPIE   -Wtautological-compare -o CMakeFiles/cmTC_42bc4.dir/src.cxx.o -c /home/dev/node-td/td/build/CMakeFiles/CMakeTmp/src.cxx
Linking CXX executable cmTC_42bc4
/usr/bin/cmake -E cmake_link_script CMakeFiles/cmTC_42bc4.dir/link.txt --verbose=1
/usr/bin/c++   -pthread -std=c++14 -fno-omit-frame-pointer -fno-exceptions -fno-rtti -ffunction-sections -fdata-sections -Wall -Wextra -Wimplicit-fallthrough=2 -Wpointer-arith -Wcast-qual -Wsign-compare -Wduplicated-branches -Wduplicated-cond -Walloc-zero -Wlogical-op -DHAVE_CXX_FLAG_WTAUTOLOGICAL_COMPARE -Wno-tautological-compare    -rdynamic CMakeFiles/cmTC_42bc4.dir/src.cxx.o  -o cmTC_42bc4 
make[1]: Leaving directory '/home/dev/node-td/td/build/CMakeFiles/CMakeTmp'

Source file was:
int main() { return 0; }
Performing C++ SOURCE FILE Test HAVE_CXX_FLAG_WVLA succeeded with the following output:
Change Dir: /home/dev/node-td/td/build/CMakeFiles/CMakeTmp

Run Build Command:"/usr/bin/make" "cmTC_5888a/fast"
/usr/bin/make -f CMakeFiles/cmTC_5888a.dir/build.make CMakeFiles/cmTC_5888a.dir/build
make[1]: Entering directory '/home/dev/node-td/td/build/CMakeFiles/CMakeTmp'
Building CXX object CMakeFiles/cmTC_5888a.dir/src.cxx.o
/usr/bin/c++    -pthread -std=c++14 -fno-omit-frame-pointer -fno-exceptions -fno-rtti -ffunction-sections -fdata-sections -Wall -Wextra -Wimplicit-fallthrough=2 -Wpointer-arith -Wcast-qual -Wsign-compare -Wduplicated-branches -Wduplicated-cond -Walloc-zero -Wlogical-op -Wno-tautological-compare -Wpointer-arith -DHAVE_CXX_FLAG_WVLA -Wvla -fPIE   -Wvla -o CMakeFiles/cmTC_5888a.dir/src.cxx.o -c /home/dev/node-td/td/build/CMakeFiles/CMakeTmp/src.cxx
Linking CXX executable cmTC_5888a
/usr/bin/cmake -E cmake_link_script CMakeFiles/cmTC_5888a.dir/link.txt --verbose=1
/usr/bin/c++   -pthread -std=c++14 -fno-omit-frame-pointer -fno-exceptions -fno-rtti -ffunction-sections -fdata-sections -Wall -Wextra -Wimplicit-fallthrough=2 -Wpointer-arith -Wcast-qual -Wsign-compare -Wduplicated-branches -Wduplicated-cond -Walloc-zero -Wlogical-op -Wno-tautological-compare -Wpointer-arith -DHAVE_CXX_FLAG_WVLA -Wvla    -rdynamic CMakeFiles/cmTC_5888a.dir/src.cxx.o  -o cmTC_5888a 
make[1]: Leaving directory '/home/dev/node-td/td/build/CMakeFiles/CMakeTmp'

Source file was:
int main() { return 0; }
Performing C++ SOURCE FILE Test HAVE_CXX_FLAG_WNON_VIRTUAL_DTOR succeeded with the following output:
Change Dir: /home/dev/node-td/td/build/CMakeFiles/CMakeTmp

Run Build Command:"/usr/bin/make" "cmTC_3b840/fast"
/usr/bin/make -f CMakeFiles/cmTC_3b840.dir/build.make CMakeFiles/cmTC_3b840.dir/build
make[1]: Entering directory '/home/dev/node-td/td/build/CMakeFiles/CMakeTmp'
Building CXX object CMakeFiles/cmTC_3b840.dir/src.cxx.o
/usr/bin/c++    -pthread -std=c++14 -fno-omit-frame-pointer -fno-exceptions -fno-rtti -ffunction-sections -fdata-sections -Wall -Wextra -Wimplicit-fallthrough=2 -Wpointer-arith -Wcast-qual -Wsign-compare -Wduplicated-branches -Wduplicated-cond -Walloc-zero -Wlogical-op -Wno-tautological-compare -Wpointer-arith -Wvla -DHAVE_CXX_FLAG_WNON_VIRTUAL_DTOR -Wnon-virtual-dtor -fPIE   -Wnon-virtual-dtor -o CMakeFiles/cmTC_3b840.dir/src.cxx.o -c /home/dev/node-td/td/build/CMakeFiles/CMakeTmp/src.cxx
Linking CXX executable cmTC_3b840
/usr/bin/cmake -E cmake_link_script CMakeFiles/cmTC_3b840.dir/link.txt --verbose=1
/usr/bin/c++   -pthread -std=c++14 -fno-omit-frame-pointer -fno-exceptions -fno-rtti -ffunction-sections -fdata-sections -Wall -Wextra -Wimplicit-fallthrough=2 -Wpointer-arith -Wcast-qual -Wsign-compare -Wduplicated-branches -Wduplicated-cond -Walloc-zero -Wlogical-op -Wno-tautological-compare -Wpointer-arith -Wvla -DHAVE_CXX_FLAG_WNON_VIRTUAL_DTOR -Wnon-virtual-dtor    -rdynamic CMakeFiles/cmTC_3b840.dir/src.cxx.o  -o cmTC_3b840 
make[1]: Leaving directory '/home/dev/node-td/td/build/CMakeFiles/CMakeTmp'

Source file was:
int main() { return 0; }
Performing C++ SOURCE FILE Test HAVE_CXX_FLAG_WUNUSED_PARAMETER succeeded with the following output:
Change Dir: /home/dev/node-td/td/build/CMakeFiles/CMakeTmp

Run Build Command:"/usr/bin/make" "cmTC_4cd38/fast"
/usr/bin/make -f CMakeFiles/cmTC_4cd38.dir/build.make CMakeFiles/cmTC_4cd38.dir/build
make[1]: Entering directory '/home/dev/node-td/td/build/CMakeFiles/CMakeTmp'
Building CXX object CMakeFiles/cmTC_4cd38.dir/src.cxx.o
/usr/bin/c++    -pthread -std=c++14 -fno-omit-frame-pointer -fno-exceptions -fno-rtti -ffunction-sections -fdata-sections -Wall -Wextra -Wimplicit-fallthrough=2 -Wpointer-arith -Wcast-qual -Wsign-compare -Wduplicated-branches -Wduplicated-cond -Walloc-zero -Wlogical-op -Wno-tautological-compare -Wpointer-arith -Wvla -Wnon-virtual-dtor -DHAVE_CXX_FLAG_WUNUSED_PARAMETER -Wno-unused-parameter -fPIE   -Wunused-parameter -o CMakeFiles/cmTC_4cd38.dir/src.cxx.o -c /home/dev/node-td/td/build/CMakeFiles/CMakeTmp/src.cxx
Linking CXX executable cmTC_4cd38
/usr/bin/cmake -E cmake_link_script CMakeFiles/cmTC_4cd38.dir/link.txt --verbose=1
/usr/bin/c++   -pthread -std=c++14 -fno-omit-frame-pointer -fno-exceptions -fno-rtti -ffunction-sections -fdata-sections -Wall -Wextra -Wimplicit-fallthrough=2 -Wpointer-arith -Wcast-qual -Wsign-compare -Wduplicated-branches -Wduplicated-cond -Walloc-zero -Wlogical-op -Wno-tautological-compare -Wpointer-arith -Wvla -Wnon-virtual-dtor -DHAVE_CXX_FLAG_WUNUSED_PARAMETER -Wno-unused-parameter    -rdynamic CMakeFiles/cmTC_4cd38.dir/src.cxx.o  -o cmTC_4cd38 
make[1]: Leaving directory '/home/dev/node-td/td/build/CMakeFiles/CMakeTmp'

Source file was:
int main() { return 0; }
Performing C++ SOURCE FILE Test HAVE_CXX_FLAG_WCONVERSION succeeded with the following output:
Change Dir: /home/dev/node-td/td/build/CMakeFiles/CMakeTmp

Run Build Command:"/usr/bin/make" "cmTC_50bcb/fast"
/usr/bin/make -f CMakeFiles/cmTC_50bcb.dir/build.make CMakeFiles/cmTC_50bcb.dir/build
make[1]: Entering directory '/home/dev/node-td/td/build/CMakeFiles/CMakeTmp'
Building CXX object CMakeFiles/cmTC_50bcb.dir/src.cxx.o
/usr/bin/c++    -pthread -std=c++14 -fno-omit-frame-pointer -fno-exceptions -fno-rtti -ffunction-sections -fdata-sections -Wall -Wextra -Wimplicit-fallthrough=2 -Wpointer-arith -Wcast-qual -Wsign-compare -Wduplicated-branches -Wduplicated-cond -Walloc-zero -Wlogical-op -Wno-tautological-compare -Wpointer-arith -Wvla -Wnon-virtual-dtor -Wno-unused-parameter -DHAVE_CXX_FLAG_WCONVERSION -Wconversion -fPIE   -Wconversion -o CMakeFiles/cmTC_50bcb.dir/src.cxx.o -c /home/dev/node-td/td/build/CMakeFiles/CMakeTmp/src.cxx
Linking CXX executable cmTC_50bcb
/usr/bin/cmake -E cmake_link_script CMakeFiles/cmTC_50bcb.dir/link.txt --verbose=1
/usr/bin/c++   -pthread -std=c++14 -fno-omit-frame-pointer -fno-exceptions -fno-rtti -ffunction-sections -fdata-sections -Wall -Wextra -Wimplicit-fallthrough=2 -Wpointer-arith -Wcast-qual -Wsign-compare -Wduplicated-branches -Wduplicated-cond -Walloc-zero -Wlogical-op -Wno-tautological-compare -Wpointer-arith -Wvla -Wnon-virtual-dtor -Wno-unused-parameter -DHAVE_CXX_FLAG_WCONVERSION -Wconversion    -rdynamic CMakeFiles/cmTC_50bcb.dir/src.cxx.o  -o cmTC_50bcb 
make[1]: Leaving directory '/home/dev/node-td/td/build/CMakeFiles/CMakeTmp'

Source file was:
int main() { return 0; }
Performing C++ SOURCE FILE Test HAVE_CXX_FLAG_WSIGN_CONVERSION succeeded with the following output:
Change Dir: /home/dev/node-td/td/build/CMakeFiles/CMakeTmp

Run Build Command:"/usr/bin/make" "cmTC_24f29/fast"
/usr/bin/make -f CMakeFiles/cmTC_24f29.dir/build.make CMakeFiles/cmTC_24f29.dir/build
make[1]: Entering directory '/home/dev/node-td/td/build/CMakeFiles/CMakeTmp'
Building CXX object CMakeFiles/cmTC_24f29.dir/src.cxx.o
/usr/bin/c++    -pthread -std=c++14 -fno-omit-frame-pointer -fno-exceptions -fno-rtti -ffunction-sections -fdata-sections -Wall -Wextra -Wimplicit-fallthrough=2 -Wpointer-arith -Wcast-qual -Wsign-compare -Wduplicated-branches -Wduplicated-cond -Walloc-zero -Wlogical-op -Wno-tautological-compare -Wpointer-arith -Wvla -Wnon-virtual-dtor -Wno-unused-parameter -Wconversion -DHAVE_CXX_FLAG_WSIGN_CONVERSION -Wno-sign-conversion -fPIE   -Wsign-conversion -o CMakeFiles/cmTC_24f29.dir/src.cxx.o -c /home/dev/node-td/td/build/CMakeFiles/CMakeTmp/src.cxx
Linking CXX executable cmTC_24f29
/usr/bin/cmake -E cmake_link_script CMakeFiles/cmTC_24f29.dir/link.txt --verbose=1
/usr/bin/c++   -pthread -std=c++14 -fno-omit-frame-pointer -fno-exceptions -fno-rtti -ffunction-sections -fdata-sections -Wall -Wextra -Wimplicit-fallthrough=2 -Wpointer-arith -Wcast-qual -Wsign-compare -Wduplicated-branches -Wduplicated-cond -Walloc-zero -Wlogical-op -Wno-tautological-compare -Wpointer-arith -Wvla -Wnon-virtual-dtor -Wno-unused-parameter -Wconversion -DHAVE_CXX_FLAG_WSIGN_CONVERSION -Wno-sign-conversion    -rdynamic CMakeFiles/cmTC_24f29.dir/src.cxx.o  -o cmTC_24f29 
make[1]: Leaving directory '/home/dev/node-td/td/build/CMakeFiles/CMakeTmp'

Source file was:
int main() { return 0; }
Performing C++ SOURCE FILE Test HAVE_CXX_FLAG_WODR succeeded with the following output:
Change Dir: /home/dev/node-td/td/build/CMakeFiles/CMakeTmp

Run Build Command:"/usr/bin/make" "cmTC_4852f/fast"
/usr/bin/make -f CMakeFiles/cmTC_4852f.dir/build.make CMakeFiles/cmTC_4852f.dir/build
make[1]: Entering directory '/home/dev/node-td/td/build/CMakeFiles/CMakeTmp'
Building CXX object CMakeFiles/cmTC_4852f.dir/src.cxx.o
/usr/bin/c++    -pthread -std=c++14 -fno-omit-frame-pointer -fno-exceptions -fno-rtti -ffunction-sections -fdata-sections -Wall -Wextra -Wimplicit-fallthrough=2 -Wpointer-arith -Wcast-qual -Wsign-compare -Wduplicated-branches -Wduplicated-cond -Walloc-zero -Wlogical-op -Wno-tautological-compare -Wpointer-arith -Wvla -Wnon-virtual-dtor -Wno-unused-parameter -Wconversion -Wno-sign-conversion -DHAVE_CXX_FLAG_WODR -Wodr -fPIE   -Wodr -o CMakeFiles/cmTC_4852f.dir/src.cxx.o -c /home/dev/node-td/td/build/CMakeFiles/CMakeTmp/src.cxx
Linking CXX executable cmTC_4852f
/usr/bin/cmake -E cmake_link_script CMakeFiles/cmTC_4852f.dir/link.txt --verbose=1
/usr/bin/c++   -pthread -std=c++14 -fno-omit-frame-pointer -fno-exceptions -fno-rtti -ffunction-sections -fdata-sections -Wall -Wextra -Wimplicit-fallthrough=2 -Wpointer-arith -Wcast-qual -Wsign-compare -Wduplicated-branches -Wduplicated-cond -Walloc-zero -Wlogical-op -Wno-tautological-compare -Wpointer-arith -Wvla -Wnon-virtual-dtor -Wno-unused-parameter -Wconversion -Wno-sign-conversion -DHAVE_CXX_FLAG_WODR -Wodr    -rdynamic CMakeFiles/cmTC_4852f.dir/src.cxx.o  -o cmTC_4852f 
make[1]: Leaving directory '/home/dev/node-td/td/build/CMakeFiles/CMakeTmp'

Source file was:
int main() { return 0; }
Performing C++ SOURCE FILE Test HAVE_CXX_FLAG_FLTO_ODR_TYPE_MERGING succeeded with the following output:
Change Dir: /home/dev/node-td/td/build/CMakeFiles/CMakeTmp

Run Build Command:"/usr/bin/make" "cmTC_94492/fast"
/usr/bin/make -f CMakeFiles/cmTC_94492.dir/build.make CMakeFiles/cmTC_94492.dir/build
make[1]: Entering directory '/home/dev/node-td/td/build/CMakeFiles/CMakeTmp'
Building CXX object CMakeFiles/cmTC_94492.dir/src.cxx.o
/usr/bin/c++    -pthread -std=c++14 -fno-omit-frame-pointer -fno-exceptions -fno-rtti -ffunction-sections -fdata-sections -Wall -Wextra -Wimplicit-fallthrough=2 -Wpointer-arith -Wcast-qual -Wsign-compare -Wduplicated-branches -Wduplicated-cond -Walloc-zero -Wlogical-op -Wno-tautological-compare -Wpointer-arith -Wvla -Wnon-virtual-dtor -Wno-unused-parameter -Wconversion -Wno-sign-conversion -Wodr -DHAVE_CXX_FLAG_FLTO_ODR_TYPE_MERGING -flto-odr-type-merging -fPIE   -flto-odr-type-merging -o CMakeFiles/cmTC_94492.dir/src.cxx.o -c /home/dev/node-td/td/build/CMakeFiles/CMakeTmp/src.cxx
Linking CXX executable cmTC_94492
/usr/bin/cmake -E cmake_link_script CMakeFiles/cmTC_94492.dir/link.txt --verbose=1
/usr/bin/c++   -pthread -std=c++14 -fno-omit-frame-pointer -fno-exceptions -fno-rtti -ffunction-sections -fdata-sections -Wall -Wextra -Wimplicit-fallthrough=2 -Wpointer-arith -Wcast-qual -Wsign-compare -Wduplicated-branches -Wduplicated-cond -Walloc-zero -Wlogical-op -Wno-tautological-compare -Wpointer-arith -Wvla -Wnon-virtual-dtor -Wno-unused-parameter -Wconversion -Wno-sign-conversion -Wodr -DHAVE_CXX_FLAG_FLTO_ODR_TYPE_MERGING -flto-odr-type-merging    -rdynamic CMakeFiles/cmTC_94492.dir/src.cxx.o  -o cmTC_94492 
make[1]: Leaving directory '/home/dev/node-td/td/build/CMakeFiles/CMakeTmp'

Source file was:
int main() { return 0; }
Performing C++ SOURCE FILE Test COMPILER_HAS_HIDDEN_VISIBILITY succeeded with the following output:
Change Dir: /home/dev/node-td/td/build/CMakeFiles/CMakeTmp

Run Build Command:"/usr/bin/make" "cmTC_bc405/fast"
/usr/bin/make -f CMakeFiles/cmTC_bc405.dir/build.make CMakeFiles/cmTC_bc405.dir/build
make[1]: Entering directory '/home/dev/node-td/td/build/CMakeFiles/CMakeTmp'
Building CXX object CMakeFiles/cmTC_bc405.dir/src.cxx.o
/usr/bin/c++    -pthread -std=c++14 -fno-omit-frame-pointer -fno-exceptions -fno-rtti -ffunction-sections -fdata-sections -Wall -Wextra -Wimplicit-fallthrough=2 -Wpointer-arith -Wcast-qual -Wsign-compare -Wduplicated-branches -Wduplicated-cond -Walloc-zero -Wlogical-op -Wno-tautological-compare -Wpointer-arith -Wvla -Wnon-virtual-dtor -Wno-unused-parameter -Wconversion -Wno-sign-conversion -Wodr -flto-odr-type-merging -DCOMPILER_HAS_HIDDEN_VISIBILITY -fPIE   -fvisibility=hidden -o CMakeFiles/cmTC_bc405.dir/src.cxx.o -c /home/dev/node-td/td/build/CMakeFiles/CMakeTmp/src.cxx
Linking CXX executable cmTC_bc405
/usr/bin/cmake -E cmake_link_script CMakeFiles/cmTC_bc405.dir/link.txt --verbose=1
/usr/bin/c++   -pthread -std=c++14 -fno-omit-frame-pointer -fno-exceptions -fno-rtti -ffunction-sections -fdata-sections -Wall -Wextra -Wimplicit-fallthrough=2 -Wpointer-arith -Wcast-qual -Wsign-compare -Wduplicated-branches -Wduplicated-cond -Walloc-zero -Wlogical-op -Wno-tautological-compare -Wpointer-arith -Wvla -Wnon-virtual-dtor -Wno-unused-parameter -Wconversion -Wno-sign-conversion -Wodr -flto-odr-type-merging -DCOMPILER_HAS_HIDDEN_VISIBILITY    -rdynamic CMakeFiles/cmTC_bc405.dir/src.cxx.o  -o cmTC_bc405 
make[1]: Leaving directory '/home/dev/node-td/td/build/CMakeFiles/CMakeTmp'

Source file was:
int main() { return 0; }
Performing C++ SOURCE FILE Test COMPILER_HAS_HIDDEN_INLINE_VISIBILITY succeeded with the following output:
Change Dir: /home/dev/node-td/td/build/CMakeFiles/CMakeTmp

Run Build Command:"/usr/bin/make" "cmTC_57489/fast"
/usr/bin/make -f CMakeFiles/cmTC_57489.dir/build.make CMakeFiles/cmTC_57489.dir/build
make[1]: Entering directory '/home/dev/node-td/td/build/CMakeFiles/CMakeTmp'
Building CXX object CMakeFiles/cmTC_57489.dir/src.cxx.o
/usr/bin/c++    -pthread -std=c++14 -fno-omit-frame-pointer -fno-exceptions -fno-rtti -ffunction-sections -fdata-sections -Wall -Wextra -Wimplicit-fallthrough=2 -Wpointer-arith -Wcast-qual -Wsign-compare -Wduplicated-branches -Wduplicated-cond -Walloc-zero -Wlogical-op -Wno-tautological-compare -Wpointer-arith -Wvla -Wnon-virtual-dtor -Wno-unused-parameter -Wconversion -Wno-sign-conversion -Wodr -flto-odr-type-merging -DCOMPILER_HAS_HIDDEN_INLINE_VISIBILITY -fPIE   -fvisibility-inlines-hidden -o CMakeFiles/cmTC_57489.dir/src.cxx.o -c /home/dev/node-td/td/build/CMakeFiles/CMakeTmp/src.cxx
Linking CXX executable cmTC_57489
/usr/bin/cmake -E cmake_link_script CMakeFiles/cmTC_57489.dir/link.txt --verbose=1
/usr/bin/c++   -pthread -std=c++14 -fno-omit-frame-pointer -fno-exceptions -fno-rtti -ffunction-sections -fdata-sections -Wall -Wextra -Wimplicit-fallthrough=2 -Wpointer-arith -Wcast-qual -Wsign-compare -Wduplicated-branches -Wduplicated-cond -Walloc-zero -Wlogical-op -Wno-tautological-compare -Wpointer-arith -Wvla -Wnon-virtual-dtor -Wno-unused-parameter -Wconversion -Wno-sign-conversion -Wodr -flto-odr-type-merging -DCOMPILER_HAS_HIDDEN_INLINE_VISIBILITY    -rdynamic CMakeFiles/cmTC_57489.dir/src.cxx.o  -o cmTC_57489 
make[1]: Leaving directory '/home/dev/node-td/td/build/CMakeFiles/CMakeTmp'

Source file was:
int main() { return 0; }
Performing C++ SOURCE FILE Test COMPILER_HAS_DEPRECATED_ATTR succeeded with the following output:
Change Dir: /home/dev/node-td/td/build/CMakeFiles/CMakeTmp

Run Build Command:"/usr/bin/make" "cmTC_a426b/fast"
/usr/bin/make -f CMakeFiles/cmTC_a426b.dir/build.make CMakeFiles/cmTC_a426b.dir/build
make[1]: Entering directory '/home/dev/node-td/td/build/CMakeFiles/CMakeTmp'
Building CXX object CMakeFiles/cmTC_a426b.dir/src.cxx.o
/usr/bin/c++    -pthread -std=c++14 -fno-omit-frame-pointer -fno-exceptions -fno-rtti -ffunction-sections -fdata-sections -Wall -Wextra -Wimplicit-fallthrough=2 -Wpointer-arith -Wcast-qual -Wsign-compare -Wduplicated-branches -Wduplicated-cond -Walloc-zero -Wlogical-op -Wno-tautological-compare -Wpointer-arith -Wvla -Wnon-virtual-dtor -Wno-unused-parameter -Wconversion -Wno-sign-conversion -Wodr -flto-odr-type-merging -DCOMPILER_HAS_DEPRECATED_ATTR -fPIE   -o CMakeFiles/cmTC_a426b.dir/src.cxx.o -c /home/dev/node-td/td/build/CMakeFiles/CMakeTmp/src.cxx
/home/dev/node-td/td/build/CMakeFiles/CMakeTmp/src.cxx: In function ‘int main()’:
/home/dev/node-td/td/build/CMakeFiles/CMakeTmp/src.cxx:2:34: warning: ‘int somefunc()’ is deprecated [-Wdeprecated-declarations]
     int main() { return somefunc();}
                                  ^
/home/dev/node-td/td/build/CMakeFiles/CMakeTmp/src.cxx:1:37: note: declared here
 __attribute__((__deprecated__)) int somefunc() { return 0; }
                                     ^~~~~~~~
Linking CXX executable cmTC_a426b
/usr/bin/cmake -E cmake_link_script CMakeFiles/cmTC_a426b.dir/link.txt --verbose=1
/usr/bin/c++   -pthread -std=c++14 -fno-omit-frame-pointer -fno-exceptions -fno-rtti -ffunction-sections -fdata-sections -Wall -Wextra -Wimplicit-fallthrough=2 -Wpointer-arith -Wcast-qual -Wsign-compare -Wduplicated-branches -Wduplicated-cond -Walloc-zero -Wlogical-op -Wno-tautological-compare -Wpointer-arith -Wvla -Wnon-virtual-dtor -Wno-unused-parameter -Wconversion -Wno-sign-conversion -Wodr -flto-odr-type-merging -DCOMPILER_HAS_DEPRECATED_ATTR    -rdynamic CMakeFiles/cmTC_a426b.dir/src.cxx.o  -o cmTC_a426b 
make[1]: Leaving directory '/home/dev/node-td/td/build/CMakeFiles/CMakeTmp'

Source file was:
__attribute__((__deprecated__)) int somefunc() { return 0; }
    int main() { return somefunc();}
Performing C++ SOURCE FILE Test GNU_READLINE_FOUND succeeded with the following output:
Change Dir: /home/dev/node-td/td/build/CMakeFiles/CMakeTmp

Run Build Command:"/usr/bin/make" "cmTC_74378/fast"
/usr/bin/make -f CMakeFiles/cmTC_74378.dir/build.make CMakeFiles/cmTC_74378.dir/build
make[1]: Entering directory '/home/dev/node-td/td/build/CMakeFiles/CMakeTmp'
Building CXX object CMakeFiles/cmTC_74378.dir/src.cxx.o
/usr/bin/c++    -pthread -std=c++14 -fno-omit-frame-pointer -fno-exceptions -fno-rtti -ffunction-sections -fdata-sections -Wall -Wextra -Wimplicit-fallthrough=2 -Wpointer-arith -Wcast-qual -Wsign-compare -Wduplicated-branches -Wduplicated-cond -Walloc-zero -Wlogical-op -Wno-tautological-compare -Wpointer-arith -Wvla -Wnon-virtual-dtor -Wno-unused-parameter -Wconversion -Wno-sign-conversion -Wodr -flto-odr-type-merging -DGNU_READLINE_FOUND -fPIE   -o CMakeFiles/cmTC_74378.dir/src.cxx.o -c /home/dev/node-td/td/build/CMakeFiles/CMakeTmp/src.cxx
Linking CXX executable cmTC_74378
/usr/bin/cmake -E cmake_link_script CMakeFiles/cmTC_74378.dir/link.txt --verbose=1
/usr/bin/c++   -pthread -std=c++14 -fno-omit-frame-pointer -fno-exceptions -fno-rtti -ffunction-sections -fdata-sections -Wall -Wextra -Wimplicit-fallthrough=2 -Wpointer-arith -Wcast-qual -Wsign-compare -Wduplicated-branches -Wduplicated-cond -Walloc-zero -Wlogical-op -Wno-tautological-compare -Wpointer-arith -Wvla -Wnon-virtual-dtor -Wno-unused-parameter -Wconversion -Wno-sign-conversion -Wodr -flto-odr-type-merging -DGNU_READLINE_FOUND    -rdynamic CMakeFiles/cmTC_74378.dir/src.cxx.o  -o cmTC_74378 /usr/lib/x86_64-linux-gnu/libreadline.so 
make[1]: Leaving directory '/home/dev/node-td/td/build/CMakeFiles/CMakeTmp'

Source file was:
#include <stdio.h>
#include <readline/readline.h>
int main() { rl_replace_line("", 0); }
